test1_dump.vcd
$date
	Sat Apr 26 14:22:35 2025
$end
$version
	Icarus Verilog
$end
$timescale
	1ns
$end
$scope module test1_tb $end
$var wire 1 ! data_out $end
$var wire 1 " data_in $end
$var wire 8 # data [7:0] $end
$var wire 4 $ count [3:0] $end
$var wire 1 % cltx $end
$var wire 1 & clrx $end
$var reg 1 ' clk $end
$scope module uut $end
$var wire 1 ' clk $end
$var wire 1 ( datal $end
$var wire 1 ! data_out $end
$var wire 8 ) data [7:0] $end
$var wire 4 * count [3:0] $end
$var wire 1 % cltx $end
$var wire 1 & clrx $end
$var reg 1 " dataline $end
$scope module RX $end
$var wire 1 ' clk $end
$var wire 1 ( data_in $end
$var reg 4 + bitcount [3:0] $end
$var reg 1 & cl $end
$var reg 1 , clk_div $end
$var reg 4 - count [3:0] $end
$var reg 4 . countO [3:0] $end
$var reg 32 / counter [31:0] $end
$var reg 1 ! data_out $end
$var reg 8 0 data_val [7:0] $end
$var reg 4 1 filtercount [3:0] $end
$var reg 1 2 flag $end
$upscope $end
$scope module TX $end
$var wire 1 ' clk $end
$var wire 8 3 data [7:0] $end
$var reg 1 % cl $end
$var reg 1 4 clk_div $end
$var reg 32 5 counter [31:0] $end
$var reg 11 6 data_buff [10:0] $end
$var reg 1 ( data_out $end
$upscope $end
$upscope $end
$upscope $end
$enddefinitions $end
#1
$dumpvars
b1001000111 6
b10 5
04
b10010001 3
02
b1 1
b0 0
b1 /
b0 .
b0 -
1,
b0 +
b0 *
b0 )
1(
1'
0&
0%
b0 $
b0 #
1"
1!
$end
#2
0'
#3
1&
0,
b11 5
1'
#4
0'
#5
b10 1
b1 $
b1 *
b1 .
b0 -
b100 5
0&
1,
1'
#6
0'
#7
1&
0,
b101 5
1'
#8
0'
#9
b11 1
b10 $
b10 *
b10 .
b0 -
b110 5
0&
1,
1'
#10
0'
#11
1&
0,
b111 5
1'
#12
0'
#13
b100 1
b11 $
b11 *
b11 .
b0 -
b1000 5
0&
1,
1'
#14
0'
#15
1&
0,
b1001 5
1'
#16
0'
#17
b101 1
b100 $
b100 *
b100 .
b0 -
b1010 5
0&
1,
1'
#18
0'
#19
1&
0,
b1011 5
1'
#20
0'
#21
b110 1
b101 $
b101 *
b101 .
b0 -
b1100 5
0&
1,
1'
#22
0'
#23
1&
0,
b1101 5
1'
#24
0'
#25
b111 1
b110 $
b110 *
b110 .
b0 -
b1110 5
0&
1,
1'
#26
0'
#27
1&
0,
b1111 5
1'
#28
0'
#29
b1000 1
b111 $
b111 *
b111 .
b0 -
b10000 5
0&
1,
1'
#30
0'
#31
0"
b10010001110 6
0(
1&
0,
b1 5
14
1'
#32
0'
#33
b0 1
12
b1000 $
b1000 *
b1000 .
b0 -
0!
b10 5
0&
1,
1'
#34
0'
#35
1&
0,
b11 5
1'
#36
0'
#37
b0 $
b0 *
b0 .
b1 -
b100 5
0&
1,
1'
#38
0'
#39
1&
0,
b101 5
1'
#40
0'
#41
b10 -
b110 5
0&
1,
1'
#42
0'
#43
1&
0,
b111 5
1'
#44
0'
#45
b11 -
b1000 5
0&
1,
1'
#46
0'
#47
1&
0,
b1001 5
1'
#48
0'
#49
b100 -
b1010 5
0&
1,
1'
#50
0'
#51
1&
0,
b1011 5
1'
#52
0'
#53
b101 -
b1100 5
0&
1,
1'
#54
0'
#55
1&
0,
b1101 5
1'
#56
0'
#57
b110 -
b1110 5
0&
1,
1'
#58
0'
#59
1&
0,
b1111 5
1'
#60
0'
#61
b111 -
b10000 5
0&
1,
1'
#62
0'
#63
1&
0,
1%
b1 5
04
1'
#64
0'
#65
b1000 -
b10 5
0&
1,
1'
#66
0'
#67
1&
0,
b11 5
1'
#68
0'
#69
b1001 -
b100 5
0&
1,
1'
#70
0'
#71
1&
0,
b101 5
1'
#72
0'
#73
b1010 -
b110 5
0&
1,
1'
#74
0'
#75
1&
0,
b111 5
1'
#76
0'
#77
b1011 -
b1000 5
0&
1,
1'
#78
0'
#79
1&
0,
b1001 5
1'
#80
0'
#81
b1100 -
b1010 5
0&
1,
1'
#82
0'
#83
1&
0,
b1011 5
1'
#84
0'
#85
b1101 -
b1100 5
0&
1,
1'
#86
0'
#87
1&
0,
b1101 5
1'
#88
0'
#89
b1110 -
b1110 5
0&
1,
1'
#90
0'
#91
1&
0,
b1111 5
1'
#92
0'
#93
b1111 -
b10000 5
0&
1,
1'
#94
0'
#95
1"
b100011100 6
1(
1&
0,
0%
b1 5
14
1'
#96
0'
#97
b0 1
b0 -
1!
b10 5
0&
1,
1'
#98
0'
#99
1&
0,
b11 5
1'
#100
0'
#101
b1 1
b1 -
b100 5
0&
1,
1'
#102
0'
#103
1&
0,
b101 5
1'
#104
0'
#105
b10 1
b1 $
b1 *
b1 .
b10 -
b110 5
0&
1,
1'
#106
0'
#107
1&
0,
b111 5
1'
#108
0'
#109
b11 1
b10 $
b10 *
b10 .
b11 -
b1000 5
0&
1,
1'
#110
0'
#111
1&
0,
b1001 5
1'
#112
0'
#113
b100 1
b11 $
b11 *
b11 .
b100 -
b1010 5
0&
1,
1'
#114
0'
#115
1&
0,
b1011 5
1'
#116
0'
#117
b101 1
b100 $
b100 *
b100 .
b101 -
b1100 5
0&
1,
1'
#118
0'
#119
1&
0,
b1101 5
1'
#120
0'
#121
b110 1
b101 $
b101 *
b101 .
b110 -
b1110 5
0&
1,
1'
#122
0'
#123
1&
0,
b1111 5
1'
#124
0'
#125
b111 1
b110 $
b110 *
b110 .
b111 -
b10000 5
0&
1,
1'
#126
0'
#127
1&
0,
1%
b1 5
04
1'
#128
0'
#129
b1000 1
b111 $
b111 *
b111 .
b1000 -
b10 5
0&
1,
1'
#130
0'
#131
1&
0,
b11 5
1'
#132
0'
#133
b1001 1
b1000 $
b1000 *
b1000 .
b1001 -
b100 5
0&
1,
1'
#134
0'
#135
1&
0,
b101 5
1'
#136
0'
#137
b1010 1
b1001 $
b1001 *
b1001 .
b1010 -
b110 5
0&
1,
1'
#138
0'
#139
1&
0,
b111 5
1'
#140
0'
#141
b1011 1
b1010 $
b1010 *
b1010 .
b1011 -
b1000 5
0&
1,
1'
#142
0'
#143
1&
0,
b1001 5
1'
#144
0'
#145
b1100 1
b1011 $
b1011 *
b1011 .
b1100 -
b1010 5
0&
1,
1'
#146
0'
#147
1&
0,
b1011 5
1'
#148
0'
#149
b1101 1
b1100 $
b1100 *
b1100 .
b1101 -
b1100 5
0&
1,
1'
#150
0'
#151
1&
0,
b1101 5
1'
#152
0'
#153
b1110 1
b1101 $
b1101 *
b1101 .
b1110 -
b1110 5
0&
1,
1'
#154
0'
#155
1&
0,
b1111 5
1'
#156
0'
#157
b1111 1
b1110 $
b1110 *
b1110 .
b1111 -
b10000 5
0&
1,
1'
#158
0'
#159
0"
b1000111000 6
0(
1&
0,
0%
b1 5
14
1'
#160
0'
#161
b0 1
b1 +
b1 #
b1 )
b1 0
b1111 $
b1111 *
b1111 .
b0 -
0!
b10 5
0&
1,
1'
#162
0'
#163
1&
0,
b11 5
1'
#164
0'
#165
b0 $
b0 *
b0 .
b1 -
b100 5
0&
1,
1'
#166
0'
#167
1&
0,
b101 5
1'
#168
0'
#169
b10 -
b110 5
0&
1,
1'
#170
0'
#171
1&
0,
b111 5
1'
#172
0'
#173
b11 -
b1000 5
0&
1,
1'
#174
0'
#175
1&
0,
b1001 5
1'
#176
0'
#177
b100 -
b1010 5
0&
1,
1'
#178
0'
#179
1&
0,
b1011 5
1'
#180
0'
#181
b101 -
b1100 5
0&
1,
1'
#182
0'
#183
1&
0,
b1101 5
1'
#184
0'
#185
b110 -
b1110 5
0&
1,
1'
#186
0'
#187
1&
0,
b1111 5
1'
#188
0'
#189
b111 -
b10000 5
0&
1,
1'
#190
0'
#191
1&
0,
1%
b1 5
04
1'
#192
0'
#193
b1000 -
b10 5
0&
1,
1'
#194
0'
#195
1&
0,
b11 5
1'
#196
0'
#197
b1001 -
b100 5
0&
1,
1'
#198
0'
#199
1&
0,
b101 5
1'
#200
0'
#201
b1010 -
b110 5
0&
1,
1'
#202
0'
#203
1&
0,
b111 5
1'
#204
0'
#205
b1011 -
b1000 5
0&
1,
1'
#206
0'
#207
1&
0,
b1001 5
1'
#208
0'
#209
b1100 -
b1010 5
0&
1,
1'
#210
0'
#211
1&
0,
b1011 5
1'
#212
0'
#213
b1101 -
b1100 5
0&
1,
1'
#214
0'
#215
1&
0,
b1101 5
1'
#216
0'
#217
b1110 -
b1110 5
0&
1,
1'
#218
0'
#219
1&
0,
b1111 5
1'
#220
0'
#221
b1111 -
b10000 5
0&
1,
1'
#222
0'
#223
b10001110000 6
1&
0,
0%
b1 5
14
1'
#224
0'
#225
b10 +
b10 #
b10 )
b10 0
b0 -
b10 5
0&
1,
1'
#226
0'
#227
1&
0,
b11 5
1'
#228
0'
#229
b1 -
b100 5
0&
1,
1'
#230
0'
#231
1&
0,
b101 5
1'
#232
0'
#233
b10 -
b110 5
0&
1,
1'
#234
0'
#235
1&
0,
b111 5
1'
#236
0'
#237
b11 -
b1000 5
0&
1,
1'
#238
0'
#239
1&
0,
b1001 5
1'
#240
0'
#241
b100 -
b1010 5
0&
1,
1'
#242
0'
#243
1&
0,
b1011 5
1'
#244
0'
#245
b101 -
b1100 5
0&
1,
1'
#246
0'
#247
1&
0,
b1101 5
1'
#248
0'
#249
b110 -
b1110 5
0&
1,
1'
#250
0'
#251
1&
0,
b1111 5
1'
#252
0'
#253
b111 -
b10000 5
0&
1,
1'
#254
0'
#255
1&
0,
1%
b1 5
04
1'
#256
0'
#257
b1000 -
b10 5
0&
1,
1'
#258
0'
#259
1&
0,
b11 5
1'
#260
0'
#261
b1001 -
b100 5
0&
1,
1'
#262
0'
#263
1&
0,
b101 5
1'
#264
0'
#265
b1010 -
b110 5
0&
1,
1'
#266
0'
#267
1&
0,
b111 5
1'
#268
0'
#269
b1011 -
b1000 5
0&
1,
1'
#270
0'
#271
1&
0,
b1001 5
1'
#272
0'
#273
b1100 -
b1010 5
0&
1,
1'
#274
0'
#275
1&
0,
b1011 5
1'
#276
0'
#277
b1101 -
b1100 5
0&
1,
1'
#278
0'
#279
1&
0,
b1101 5
1'
#280
0'
#281
b1110 -
b1110 5
0&
1,
1'
#282
0'
#283
1&
0,
b1111 5
1'
#284
0'
#285
b1111 -
b10000 5
0&
1,
1'
#286
0'
#287
1"
b11100000 6
1(
1&
0,
0%
b1 5
14
1'
#288
0'
#289
b11 +
b100 #
b100 )
b100 0
b0 1
b0 -
1!
b10 5
0&
1,
1'
#290
0'
#291
1&
0,
b11 5
1'
#292
0'
#293
b1 1
b1 -
b100 5
0&
1,
1'
#294
0'
#295
1&
0,
b101 5
1'
#296
0'
#297
b10 1
b1 $
b1 *
b1 .
b10 -
b110 5
0&
1,
1'
#298
0'
#299
1&
0,
b111 5
1'
#300
0'
#301
b11 1
b10 $
b10 *
b10 .
b11 -
b1000 5
0&
1,
1'
#302
0'
#303
1&
0,
b1001 5
1'
#304
0'
#305
b100 1
b11 $
b11 *
b11 .
b100 -
b1010 5
0&
1,
1'
#306
0'
#307
1&
0,
b1011 5
1'
#308
0'
#309
b101 1
b100 $
b100 *
b100 .
b101 -
b1100 5
0&
1,
1'
#310
0'
#311
1&
0,
b1101 5
1'
#312
0'
#313
b110 1
b101 $
b101 *
b101 .
b110 -
b1110 5
0&
1,
1'
#314
0'
#315
1&
0,
b1111 5
1'
#316
0'
#317
b111 1
b110 $
b110 *
b110 .
b111 -
b10000 5
0&
1,
1'
#318
0'
#319
1&
0,
1%
b1 5
04
1'
#320
0'
#321
b1000 1
b111 $
b111 *
b111 .
b1000 -
b10 5
0&
1,
1'
#322
0'
#323
1&
0,
b11 5
1'
#324
0'
#325
b1001 1
b1000 $
b1000 *
b1000 .
b1001 -
b100 5
0&
1,
1'
#326
0'
#327
1&
0,
b101 5
1'
#328
0'
#329
b1010 1
b1001 $
b1001 *
b1001 .
b1010 -
b110 5
0&
1,
1'
#330
0'
#331
1&
0,
b111 5
1'
#332
0'
#333
b1011 1
b1010 $
b1010 *
b1010 .
b1011 -
b1000 5
0&
1,
1'
#334
0'
#335
1&
0,
b1001 5
1'
#336
0'
#337
b1100 1
b1011 $
b1011 *
b1011 .
b1100 -
b1010 5
0&
1,
1'
#338
0'
#339
1&
0,
b1011 5
1'
#340
0'
#341
b1101 1
b1100 $
b1100 *
b1100 .
b1101 -
b1100 5
0&
1,
1'
#342
0'
#343
1&
0,
b1101 5
1'
#344
0'
#345
b1110 1
b1101 $
b1101 *
b1101 .
b1110 -
b1110 5
0&
1,
1'
#346
0'
#347
1&
0,
b1111 5
1'
#348
0'
#349
b1111 1
b1110 $
b1110 *
b1110 .
b1111 -
b10000 5
0&
1,
1'
#350
0'
#351
0"
b111000000 6
0(
1&
0,
0%
b1 5
14
1'
#352
0'
#353
b0 1
b100 +
b1001 #
b1001 )
b1001 0
b1111 $
b1111 *
b1111 .
b0 -
0!
b10 5
0&
1,
1'
#354
0'
#355
1&
0,
b11 5
1'
#356
0'
#357
b0 $
b0 *
b0 .
b1 -
b100 5
0&
1,
1'
#358
0'
#359
1&
0,
b101 5
1'
#360
0'
#361
b10 -
b110 5
0&
1,
1'
#362
0'
#363
1&
0,
b111 5
1'
#364
0'
#365
b11 -
b1000 5
0&
1,
1'
#366
0'
#367
1&
0,
b1001 5
1'
#368
0'
#369
b100 -
b1010 5
0&
1,
1'
#370
0'
#371
1&
0,
b1011 5
1'
#372
0'
#373
b101 -
b1100 5
0&
1,
1'
#374
0'
#375
1&
0,
b1101 5
1'
#376
0'
#377
b110 -
b1110 5
0&
1,
1'
#378
0'
#379
1&
0,
b1111 5
1'
#380
0'
#381
b111 -
b10000 5
0&
1,
1'
#382
0'
#383
1&
0,
1%
b1 5
04
1'
#384
0'
#385
b1000 -
b10 5
0&
1,
1'
#386
0'
#387
1&
0,
b11 5
1'
#388
0'
#389
b1001 -
b100 5
0&
1,
1'
#390
0'
#391
1&
0,
b101 5
1'
#392
0'
#393
b1010 -
b110 5
0&
1,
1'
#394
0'
#395
1&
0,
b111 5
1'
#396
0'
#397
b1011 -
b1000 5
0&
1,
1'
#398
0'
#399
1&
0,
b1001 5
1'
#400
0'
#401
b1100 -
b1010 5
0&
1,
1'
#402
0'
#403
1&
0,
b1011 5
1'
#404
0'
#405
b1101 -
b1100 5
0&
1,
1'
#406
0'
#407
1&
0,
b1101 5
1'
#408
0'
#409
b1110 -
b1110 5
0&
1,
1'
#410
0'
#411
1&
0,
b1111 5
1'
#412
0'
#413
b1111 -
b10000 5
0&
1,
1'
#414
0'
#415
b1110000000 6
1&
0,
0%
b1 5
14
1'
#416
0'
#417
b101 +
b10010 #
b10010 )
b10010 0
b0 -
b10 5
0&
1,
1'
#418
0'
#419
1&
0,
b11 5
1'
#420
0'
#421
b1 -
b100 5
0&
1,
1'
#422
0'
#423
1&
0,
b101 5
1'
#424
0'
#425
b10 -
b110 5
0&
1,
1'
#426
0'
#427
1&
0,
b111 5
1'
#428
0'
#429
b11 -
b1000 5
0&
1,
1'
#430
0'
#431
1&
0,
b1001 5
1'
#432
0'
#433
b100 -
b1010 5
0&
1,
1'
#434
0'
#435
1&
0,
b1011 5
1'
#436
0'
#437
b101 -
b1100 5
0&
1,
1'
#438
0'
#439
1&
0,
b1101 5
1'
#440
0'
#441
b110 -
b1110 5
0&
1,
1'
#442
0'
#443
1&
0,
b1111 5
1'
#444
0'
#445
b111 -
b10000 5
0&
1,
1'
#446
0'
#447
1&
0,
1%
b1 5
04
1'
#448
0'
#449
b1000 -
b10 5
0&
1,
1'
#450
0'
#451
1&
0,
b11 5
1'
#452
0'
#453
b1001 -
b100 5
0&
1,
1'
#454
0'
#455
1&
0,
b101 5
1'
#456
0'
#457
b1010 -
b110 5
0&
1,
1'
#458
0'
#459
1&
0,
b111 5
1'
#460
0'
#461
b1011 -
b1000 5
0&
1,
1'
#462
0'
#463
1&
0,
b1001 5
1'
#464
0'
#465
b1100 -
b1010 5
0&
1,
1'
#466
0'
#467
1&
0,
b1011 5
1'
#468
0'
#469
b1101 -
b1100 5
0&
1,
1'
#470
0'
#471
1&
0,
b1101 5
1'
#472
0'
#473
b1110 -
b1110 5
0&
1,
1'
#474
0'
#475
1&
0,
b1111 5
1'
#476
0'
#477
b1111 -
b10000 5
0&
1,
1'
#478
0'
#479
b11100000000 6
1&
0,
0%
b1 5
14
1'
#480
0'
#481
b110 +
b100100 #
b100100 )
b100100 0
b0 -
b10 5
0&
1,
1'
#482
0'
#483
1&
0,
b11 5
1'
#484
0'
#485
b1 -
b100 5
0&
1,
1'
#486
0'
#487
1&
0,
b101 5
1'
#488
0'
#489
b10 -
b110 5
0&
1,
1'
#490
0'
#491
1&
0,
b111 5
1'
#492
0'
#493
b11 -
b1000 5
0&
1,
1'
#494
0'
#495
1&
0,
b1001 5
1'
#496
0'
#497
b100 -
b1010 5
0&
1,
1'
#498
0'
#499
1&
0,
b1011 5
1'
#500
0'
#501
b101 -
b1100 5
0&
1,
1'
#502
0'
#503
1&
0,
b1101 5
1'
#504
0'
#505
b110 -
b1110 5
0&
1,
1'
#506
0'
#507
1&
0,
b1111 5
1'
#508
0'
#509
b111 -
b10000 5
0&
1,
1'
#510
0'
#511
1&
0,
1%
b1 5
04
1'
#512
0'
#513
b1000 -
b10 5
0&
1,
1'
#514
0'
#515
1&
0,
b11 5
1'
#516
0'
#517
b1001 -
b100 5
0&
1,
1'
#518
0'
#519
1&
0,
b101 5
1'
#520
0'
#521
b1010 -
b110 5
0&
1,
1'
#522
0'
#523
1&
0,
b111 5
1'
#524
0'
#525
b1011 -
b1000 5
0&
1,
1'
#526
0'
#527
1&
0,
b1001 5
1'
#528
0'
#529
b1100 -
b1010 5
0&
1,
1'
#530
0'
#531
1&
0,
b1011 5
1'
#532
0'
#533
b1101 -
b1100 5
0&
1,
1'
#534
0'
#535
1&
0,
b1101 5
1'
#536
0'
#537
b1110 -
b1110 5
0&
1,
1'
#538
0'
#539
1&
0,
b1111 5
1'
#540
0'
#541
b1111 -
b10000 5
0&
1,
1'
#542
0'
#543
1"
b11000000000 6
1(
1&
0,
0%
b1 5
14
1'
#544
0'
#545
b111 +
b1001000 #
b1001000 )
b1001000 0
b0 1
b0 -
1!
b10 5
0&
1,
1'
#546
0'
#547
1&
0,
b11 5
1'
#548
0'
#549
b1 1
b1 -
b100 5
0&
1,
1'
#550
0'
#551
1&
0,
b101 5
1'
#552
0'
#553
b10 1
b1 $
b1 *
b1 .
b10 -
b110 5
0&
1,
1'
#554
0'
#555
1&
0,
b111 5
1'
#556
0'
#557
b11 1
b10 $
b10 *
b10 .
b11 -
b1000 5
0&
1,
1'
#558
0'
#559
1&
0,
b1001 5
1'
#560
0'
#561
b100 1
b11 $
b11 *
b11 .
b100 -
b1010 5
0&
1,
1'
#562
0'
#563
1&
0,
b1011 5
1'
#564
0'
#565
b101 1
b100 $
b100 *
b100 .
b101 -
b1100 5
0&
1,
1'
#566
0'
#567
1&
0,
b1101 5
1'
#568
0'
#569
b110 1
b101 $
b101 *
b101 .
b110 -
b1110 5
0&
1,
1'
#570
0'
#571
1&
0,
b1111 5
1'
#572
0'
#573
b111 1
b110 $
b110 *
b110 .
b111 -
b10000 5
0&
1,
1'
#574
0'
#575
1&
0,
1%
b1 5
04
1'
#576
0'
#577
b1000 1
b111 $
b111 *
b111 .
b1000 -
b10 5
0&
1,
1'
#578
0'
#579
1&
0,
b11 5
1'
#580
0'
#581
b1001 1
b1000 $
b1000 *
b1000 .
b1001 -
b100 5
0&
1,
1'
#582
0'
#583
1&
0,
b101 5
1'
#584
0'
#585
b1010 1
b1001 $
b1001 *
b1001 .
b1010 -
b110 5
0&
1,
1'
#586
0'
#587
1&
0,
b111 5
1'
#588
0'
#589
b1011 1
b1010 $
b1010 *
b1010 .
b1011 -
b1000 5
0&
1,
1'
#590
0'
#591
1&
0,
b1001 5
1'
#592
0'
#593
b1100 1
b1011 $
b1011 *
b1011 .
b1100 -
b1010 5
0&
1,
1'
#594
0'
#595
1&
0,
b1011 5
1'
#596
0'
#597
b1101 1
b1100 $
b1100 *
b1100 .
b1101 -
b1100 5
0&
1,
1'
#598
0'
#599
1&
0,
b1101 5
1'
#600
0'
#601
b1110 1
b1101 $
b1101 *
b1101 .
b1110 -
b1110 5
0&
1,
1'
#602
0'
#603
1&
0,
b1111 5
1'
#604
0'
#605
b1111 1
b1110 $
b1110 *
b1110 .
b1111 -
b10000 5
0&
1,
1'
#606
0'
#607
b10000000000 6
1&
0,
0%
b1 5
14
1'
#608
0'
#609
b1000 +
b10010001 #
b10010001 )
b10010001 0
b0 1
b1111 $
b1111 *
b1111 .
b0 -
b10 5
0&
1,
1'
#610
0'
#611
1&
0,
b11 5
1'
#612
0'
#613
02
b1 1
b0 $
b0 *
b0 .
b1 -
b100 5
0&
1,
1'
#614
0'
#615
1&
0,
b101 5
1'
#616
0'
#617
b10 1
b1 $
b1 *
b1 .
b0 -
b110 5
0&
1,
1'
#618
0'
#619
1&
0,
b111 5
1'
#620
0'
#621
b11 1
b10 $
b10 *
b10 .
b0 -
b1000 5
0&
1,
1'
#622
0'
#623
1&
0,
b1001 5
1'
#624
0'
#625
b100 1
b11 $
b11 *
b11 .
b0 -
b1010 5
0&
1,
1'
#626
0'
#627
1&
0,
b1011 5
1'
#628
0'
#629
b101 1
b100 $
b100 *
b100 .
b0 -
b1100 5
0&
1,
1'
#630
0'
#631
1&
0,
b1101 5
1'
#632
0'
#633
b110 1
b101 $
b101 *
b101 .
b0 -
b1110 5
0&
1,
1'
#634
0'
#635
1&
0,
b1111 5
1'
#636
0'
#637
b111 1
b110 $
b110 *
b110 .
b0 -
b10000 5
0&
1,
1'
#638
0'
#639
1&
0,
1%
b1 5
04
1'
#640
0'
#641
b1000 1
b111 $
b111 *
b111 .
b0 -
b10 5
0&
1,
1'
#642
0'
#643
1&
0,
b11 5
1'
#644
0'
#645
b1001 1
b1000 $
b1000 *
b1000 .
b0 -
b100 5
0&
1,
1'
#646
0'
#647
1&
0,
b101 5
1'
#648
0'
#649
b1010 1
b1001 $
b1001 *
b1001 .
b0 -
b110 5
0&
1,
1'
#650
0'
#651
1&
0,
b111 5
1'
#652
0'
#653
b1011 1
b1010 $
b1010 *
b1010 .
b0 -
b1000 5
0&
1,
1'
#654
0'
#655
1&
0,
b1001 5
1'
#656
0'
#657
b1100 1
b1011 $
b1011 *
b1011 .
b0 -
b1010 5
0&
1,
1'
#658
0'
#659
1&
0,
b1011 5
1'
#660
0'
#661
b1101 1
b1100 $
b1100 *
b1100 .
b0 -
b1100 5
0&
1,
1'
#662
0'
#663
1&
0,
b1101 5
1'
#664
0'
#665
b1110 1
b1101 $
b1101 *
b1101 .
b0 -
b1110 5
0&
1,
1'
#666
0'
#667
1&
0,
b1111 5
1'
#668
0'
#669
b1111 1
b1110 $
b1110 *
b1110 .
b0 -
b10000 5
0&
1,
1'
#670
0'
#671
b0 6
1&
0,
0%
b1 5
14
1'
#672
0'
#673
b0 1
b1111 $
b1111 *
b1111 .
b0 -
b10 5
0&
1,
1'
#674
0'
#675
1&
0,
b11 5
1'
#676
0'
#677
b1 1
b0 $
b0 *
b0 .
b0 -
b100 5
0&
1,
1'
#678
0'
#679
1&
0,
b101 5
1'
#680
0'
#681
b10 1
b1 $
b1 *
b1 .
b0 -
b110 5
0&
1,
1'
#682
0'
#683
1&
0,
b111 5
1'
#684
0'
#685
b11 1
b10 $
b10 *
b10 .
b0 -
b1000 5
0&
1,
1'
#686
0'
#687
1&
0,
b1001 5
1'
#688
0'
#689
b100 1
b11 $
b11 *
b11 .
b0 -
b1010 5
0&
1,
1'
#690
0'
#691
1&
0,
b1011 5
1'
#692
0'
#693
b101 1
b100 $
b100 *
b100 .
b0 -
b1100 5
0&
1,
1'
#694
0'
#695
1&
0,
b1101 5
1'
#696
0'
#697
b110 1
b101 $
b101 *
b101 .
b0 -
b1110 5
0&
1,
1'
#698
0'
#699
1&
0,
b1111 5
1'
#700
0'
#701
b111 1
b110 $
b110 *
b110 .
b0 -
b10000 5
0&
1,
1'
#702
0'
#703
1&
0,
1%
b1 5
04
1'
#704
0'
#705
b1000 1
b111 $
b111 *
b111 .
b0 -
b10 5
0&
1,
1'
#706
0'
#707
1&
0,
b11 5
1'
#708
0'
#709
b1001 1
b1000 $
b1000 *
b1000 .
b0 -
b100 5
0&
1,
1'
#710
0'
#711
1&
0,
b101 5
1'
#712
0'
#713
b1010 1
b1001 $
b1001 *
b1001 .
b0 -
b110 5
0&
1,
1'
#714
0'
#715
1&
0,
b111 5
1'
#716
0'
#717
b1011 1
b1010 $
b1010 *
b1010 .
b0 -
b1000 5
0&
1,
1'
#718
0'
#719
1&
0,
b1001 5
1'
#720
0'
#721
b1100 1
b1011 $
b1011 *
b1011 .
b0 -
b1010 5
0&
1,
1'
#722
0'
#723
1&
0,
b1011 5
1'
#724
0'
#725
b1101 1
b1100 $
b1100 *
b1100 .
b0 -
b1100 5
0&
1,
1'
#726
0'
#727
1&
0,
b1101 5
1'
#728
0'
#729
b1110 1
b1101 $
b1101 *
b1101 .
b0 -
b1110 5
0&
1,
1'
#730
0'
#731
1&
0,
b1111 5
1'
#732
0'
#733
b1111 1
b1110 $
b1110 *
b1110 .
b0 -
b10000 5
0&
1,
1'
#734
0'
#735
0"
0(
1&
0,
0%
b1 5
14
1'
#736
0'
#737
b0 1
02
b1111 $
b1111 *
b1111 .
b0 -
0!
b10 5
0&
1,
1'
#738
0'
#739
1&
0,
b11 5
1'
#740
0'
#741
02
b0 $
b0 *
b0 .
b0 -
b100 5
0&
1,
1'
#742
0'
#743
1&
0,
b101 5
1'
#744
0'
#745
02
b0 -
b110 5
0&
1,
1'
#746
0'
#747
1&
0,
b111 5
1'
#748
0'
#749
02
b0 -
b1000 5
0&
1,
1'
#750
0'
#751
1&
0,
b1001 5
1'
#752
0'
#753
02
b0 -
b1010 5
0&
1,
1'
#754
0'
#755
1&
0,
b1011 5
1'
#756
0'
#757
02
b0 -
b1100 5
0&
1,
1'
#758
0'
#759
1&
0,
b1101 5
1'
#760
0'
#761
02
b0 -
b1110 5
0&
1,
1'
#762
0'
#763
1&
0,
b1111 5
1'
#764
0'
#765
02
b0 -
b10000 5
0&
1,
1'
#766
0'
#767
1&
0,
1%
b1 5
04
1'
#768
0'
#769
02
b0 -
b10 5
0&
1,
1'
#770
0'
#771
1&
0,
b11 5
1'
#772
0'
#773
02
b0 -
b100 5
0&
1,
1'
#774
0'
#775
1&
0,
b101 5
1'
#776
0'
#777
02
b0 -
b110 5
0&
1,
1'
#778
0'
#779
1&
0,
b111 5
1'
#780
0'
#781
02
b0 -
b1000 5
0&
1,
1'
#782
0'
#783
1&
0,
b1001 5
1'
#784
0'
#785
02
b0 -
b1010 5
0&
1,
1'
#786
0'
#787
1&
0,
b1011 5
1'
#788
0'
#789
02
b0 -
b1100 5
0&
1,
1'
#790
0'
#791
1&
0,
b1101 5
1'
#792
0'
#793
02
b0 -
b1110 5
0&
1,
1'
#794
0'
#795
1&
0,
b1111 5
1'
#796
0'
#797
02
b0 -
b10000 5
0&
1,
1'
#798
0'
#799
1&
0,
0%
b1 5
14
1'
#800
0'
#801
02
b0 -
b10 5
0&
1,
1'
#802
0'
#803
1&
0,
b11 5
1'
#804
0'
#805
02
b0 -
b100 5
0&
1,
1'
#806
0'
#807
1&
0,
b101 5
1'
#808
0'
#809
02
b0 -
b110 5
0&
1,
1'
#810
0'
#811
1&
0,
b111 5
1'
#812
0'
#813
02
b0 -
b1000 5
0&
1,
1'
#814
0'
#815
1&
0,
b1001 5
1'
#816
0'
#817
02
b0 -
b1010 5
0&
1,
1'
#818
0'
#819
1&
0,
b1011 5
1'
#820
0'
#821
02
b0 -
b1100 5
0&
1,
1'
#822
0'
#823
1&
0,
b1101 5
1'
#824
0'
#825
02
b0 -
b1110 5
0&
1,
1'
#826
0'
#827
1&
0,
b1111 5
1'
#828
0'
#829
02
b0 -
b10000 5
0&
1,
1'
#830
0'
#831
1&
0,
1%
b1 5
04
1'
#832
0'
#833
02
b0 -
b10 5
0&
1,
1'
#834
0'
#835
1&
0,
b11 5
1'
#836
0'
#837
02
b0 -
b100 5
0&
1,
1'
#838
0'
#839
1&
0,
b101 5
1'
#840
0'
#841
02
b0 -
b110 5
0&
1,
1'
#842
0'
#843
1&
0,
b111 5
1'
#844
0'
#845
02
b0 -
b1000 5
0&
1,
1'
#846
0'
#847
1&
0,
b1001 5
1'
#848
0'
#849
02
b0 -
b1010 5
0&
1,
1'
#850
0'
#851
1&
0,
b1011 5
1'
#852
0'
#853
02
b0 -
b1100 5
0&
1,
1'
#854
0'
#855
1&
0,
b1101 5
1'
#856
0'
#857
02
b0 -
b1110 5
0&
1,
1'
#858
0'
#859
1&
0,
b1111 5
1'
#860
0'
#861
02
b0 -
b10000 5
0&
1,
1'
#862
0'
#863
1&
0,
0%
b1 5
14
1'
#864
0'
#865
02
b0 -
b10 5
0&
1,
1'
#866
0'
#867
1&
0,
b11 5
1'
#868
0'
#869
02
b0 -
b100 5
0&
1,
1'
#870
0'
#871
1&
0,
b101 5
1'
#872
0'
#873
02
b0 -
b110 5
0&
1,
1'
#874
0'
#875
1&
0,
b111 5
1'
#876
0'
#877
02
b0 -
b1000 5
0&
1,
1'
#878
0'
#879
1&
0,
b1001 5
1'
#880
0'
#881
02
b0 -
b1010 5
0&
1,
1'
#882
0'
#883
1&
0,
b1011 5
1'
#884
0'
#885
02
b0 -
b1100 5
0&
1,
1'
#886
0'
#887
1&
0,
b1101 5
1'
#888
0'
#889
02
b0 -
b1110 5
0&
1,
1'
#890
0'
#891
1&
0,
b1111 5
1'
#892
0'
#893
02
b0 -
b10000 5
0&
1,
1'
#894
0'
