uart_top_tb.vcd
$date
	Tue May 06 10:15:21 2025
$end
$version
	Icarus Verilog
$end
$timescale
	1ns
$end
$scope module TX_tb $end
$var wire 1 ! btn $end
$var wire 1 " tx_line $end
$var wire 2 # stat [1:0] $end
$var wire 8 $ received_data [7:0] $end
$var wire 1 % clkn $end
$var reg 1 & clk $end
$var reg 1 ' rxrst $end
$var reg 1 ( txrst $end
$scope module uut $end
$var wire 1 ! Rx $end
$var wire 1 & clk $end
$var wire 1 ) rst $end
$var wire 1 ' rxrst $end
$var wire 1 ( txrst $end
$var wire 2 * test [1:0] $end
$var wire 1 + stat $end
$var wire 8 , data [7:0] $end
$var wire 1 " Tx $end
$var reg 64 - buff [63:0] $end
$var reg 1 % clkN $end
$var reg 1 . clkn $end
$var reg 32 / counter [31:0] $end
$var reg 8 0 fixed_data [7:0] $end
$var reg 1 1 flg $end
$scope module RX $end
$var wire 1 2 btn $end
$var wire 1 . clk $end
$var wire 1 ! data_in $end
$var wire 1 ' rst_n $end
$var reg 2 3 STATE [1:0] $end
$var reg 4 4 bitcount [3:0] $end
$var reg 16 5 clk_counter [15:0] $end
$var reg 4 6 count [3:0] $end
$var reg 8 7 data [7:0] $end
$var reg 8 8 data_val [7:0] $end
$var reg 1 9 dt $end
$var reg 1 : flag $end
$var reg 2 ; st [1:0] $end
$var reg 1 < statflag $end
$upscope $end
$scope module TX $end
$var wire 1 . clk $end
$var wire 8 = data [7:0] $end
$var wire 1 ( rst_n $end
$var wire 1 > start $end
$var reg 2 ? STATE [1:0] $end
$var reg 4 @ bit_counter [3:0] $end
$var reg 20 A clk_counter [19:0] $end
$var reg 32 B counter [31:0] $end
$var reg 1 C curr_stat $end
$var reg 8 D data_buff [7:0] $end
$var reg 1 " data_out $end
$var reg 2 E dt [1:0] $end
$var reg 4 F flag [3:0] $end
$var reg 1 G stat $end
$var reg 1 + status $end
$var reg 2 H test [1:0] $end
$upscope $end
$upscope $end
$upscope $end
$enddefinitions $end
#0
$dumpvars
bx H
1G
bx F
bx E
bx D
xC
bx B
bx A
bx @
bx ?
1>
b1000 =
1<
bx ;
1:
x9
bx 8
bx 7
bx 6
bx 5
bx 4
b0 3
z2
11
b1000 0
b0 /
0.
b1001100001110110010101000011001000010000 -
bx ,
x+
bx *
z)
1(
1'
0&
x%
bx $
bx #
x"
z!
$end
#10
b0 A
b1000 D
1"
0<
b0 4
b0 6
b0 #
b0 *
b0 H
0G
b0 @
b0 B
b0 ?
b0 F
0(
0'
#12
1(
1'
#13
b1 /
1&
#14
0&
#15
b10 /
1&
#16
0&
#17
b0 ;
b1 A
0%
1.
b1 /
1&
#18
0&
#19
b10 /
1&
#20
0&
#21
1%
0.
b1 /
1&
#22
0&
#23
b10 /
1&
#24
0&
#25
b10 A
0%
1.
b1 /
1&
#26
0&
#27
b10 /
1&
#28
0&
#29
1%
0.
b1 /
1&
#30
0&
#31
b10 /
1&
#32
0&
#33
b11 A
0%
1.
b1 /
1&
#34
0&
#35
b10 /
1&
#36
0&
#37
1%
0.
b1 /
1&
#38
0&
#39
b10 /
1&
#40
0&
#41
b100 A
0%
1.
b1 /
1&
#42
0&
#43
b10 /
1&
#44
0&
#45
1%
0.
b1 /
1&
#46
0&
#47
b10 /
1&
#48
0&
#49
b101 A
0%
1.
b1 /
1&
#50
0&
#51
b10 /
1&
#52
0&
#53
1%
0.
b1 /
1&
#54
0&
#55
b10 /
1&
#56
0&
#57
b110 A
0%
1.
b1 /
1&
#58
0&
#59
b10 /
1&
#60
0&
#61
1%
0.
b1 /
1&
#62
0&
#63
b10 /
1&
#64
0&
#65
b111 A
0%
1.
b1 /
1&
#66
0&
#67
b10 /
1&
#68
0&
#69
1%
0.
b1 /
1&
#70
0&
#71
b10 /
1&
#72
0&
#73
b1000 A
0%
1.
b1 /
1&
#74
0&
#75
b10 /
1&
#76
0&
#77
1%
0.
b1 /
1&
#78
0&
#79
b10 /
1&
#80
0&
#81
b1001 A
0%
1.
b1 /
1&
#82
0&
#83
b10 /
1&
#84
0&
#85
1%
0.
b1 /
1&
#86
0&
#87
b10 /
1&
#88
0&
#89
b1010 A
0%
1.
b1 /
1&
#90
0&
#91
b10 /
1&
#92
0&
#93
1%
0.
b1 /
1&
#94
0&
#95
b10 /
1&
#96
0&
#97
b1011 A
0%
1.
b1 /
1&
#98
0&
#99
b10 /
1&
#100
0&
#101
1%
0.
b1 /
1&
#102
0&
#103
b10 /
1&
#104
0&
#105
b1100 A
0%
1.
b1 /
1&
#106
0&
#107
b10 /
1&
#108
0&
#109
1%
0.
b1 /
1&
#110
0&
#111
b10 /
1&
#112
0&
#113
b1101 A
0%
1.
b1 /
1&
#114
0&
#115
b10 /
1&
#116
0&
#117
1%
0.
b1 /
1&
#118
0&
#119
b10 /
1&
#120
0&
#121
b1110 A
0%
1.
b1 /
1&
#122
0&
#123
b10 /
1&
#124
0&
#125
1%
0.
b1 /
1&
#126
0&
#127
b10 /
1&
#128
0&
#129
b1111 A
0%
1.
b1 /
1&
#130
0&
#131
b10 /
1&
#132
0&
#133
1%
0.
b1 /
1&
#134
0&
#135
b10 /
1&
#136
0&
#137
b10000 A
0%
1.
b1 /
1&
#138
0&
#139
b10 /
1&
#140
0&
#141
1%
0.
b1 /
1&
#142
0&
#143
b10 /
1&
#144
0&
#145
b0 A
b1 ?
0%
1.
b1 /
1&
#146
0&
#147
b10 /
1&
#148
0&
#149
1%
0.
b1 /
1&
#150
0&
#151
b10 /
1&
#152
0&
#153
b1 A
0"
b1 #
b1 *
b1 H
0%
1.
b1 /
1&
#154
0&
#155
b10 /
1&
#156
0&
#157
1%
0.
b1 /
1&
#158
0&
#159
b10 /
1&
#160
0&
#161
b10 A
0%
1.
b1 /
1&
#162
0&
#163
b10 /
1&
#164
0&
#165
1%
0.
b1 /
1&
#166
0&
#167
b10 /
1&
#168
0&
#169
b11 A
0%
1.
b1 /
1&
#170
0&
#171
b10 /
1&
#172
0&
#173
1%
0.
b1 /
1&
#174
0&
#175
b10 /
1&
#176
0&
#177
b100 A
0%
1.
b1 /
1&
#178
0&
#179
b10 /
1&
#180
0&
#181
1%
0.
b1 /
1&
#182
0&
#183
b10 /
1&
#184
0&
#185
b101 A
0%
1.
b1 /
1&
#186
0&
#187
b10 /
1&
#188
0&
#189
1%
0.
b1 /
1&
#190
0&
#191
b10 /
1&
#192
0&
#193
b110 A
0%
1.
b1 /
1&
#194
0&
#195
b10 /
1&
#196
0&
#197
1%
0.
b1 /
1&
#198
0&
#199
b10 /
1&
#200
0&
#201
b111 A
0%
1.
b1 /
1&
#202
0&
#203
b10 /
1&
#204
0&
#205
1%
0.
b1 /
1&
#206
0&
#207
b10 /
1&
#208
0&
#209
b1000 A
0%
1.
b1 /
1&
#210
0&
#211
b10 /
1&
#212
0&
#213
1%
0.
b1 /
1&
#214
0&
#215
b10 /
1&
#216
0&
#217
b1001 A
0%
1.
b1 /
1&
#218
0&
#219
b10 /
1&
#220
0&
#221
1%
0.
b1 /
1&
#222
0&
#223
b10 /
1&
#224
0&
#225
b1010 A
0%
1.
b1 /
1&
#226
0&
#227
b10 /
1&
#228
0&
#229
1%
0.
b1 /
1&
#230
0&
#231
b10 /
1&
#232
0&
#233
b1011 A
0%
1.
b1 /
1&
#234
0&
#235
b10 /
1&
#236
0&
#237
1%
0.
b1 /
1&
#238
0&
#239
b10 /
1&
#240
0&
#241
b1100 A
0%
1.
b1 /
1&
#242
0&
#243
b10 /
1&
#244
0&
#245
1%
0.
b1 /
1&
#246
0&
#247
b10 /
1&
#248
0&
#249
b1101 A
0%
1.
b1 /
1&
#250
0&
#251
b10 /
1&
#252
0&
#253
1%
0.
b1 /
1&
#254
0&
#255
b10 /
1&
#256
0&
#257
b1110 A
0%
1.
b1 /
1&
#258
0&
#259
b10 /
1&
#260
0&
#261
1%
0.
b1 /
1&
#262
0&
#263
b10 /
1&
#264
0&
#265
b1111 A
0%
1.
b1 /
1&
#266
0&
#267
b10 /
1&
#268
0&
#269
1%
0.
b1 /
1&
#270
0&
#271
b10 /
1&
#272
0&
#273
b10000 A
0%
1.
b1 /
1&
#274
0&
#275
b10 /
1&
#276
0&
#277
1%
0.
b1 /
1&
#278
0&
#279
b10 /
1&
#280
0&
#281
b10 ?
b0 A
0%
1.
b1 /
1&
#282
0&
#283
b10 /
1&
#284
0&
#285
1%
0.
b1 /
1&
#286
0&
#287
b10 /
1&
#288
0&
#289
b1 A
b10 #
b10 *
b10 H
0%
1.
b1 /
1&
#290
0&
#291
b10 /
1&
#292
0&
#293
1%
0.
b1 /
1&
#294
0&
#295
b10 /
1&
#296
0&
#297
b10 A
0%
1.
b1 /
1&
#298
0&
#299
b10 /
1&
#300
0&
#301
1%
0.
b1 /
1&
#302
0&
#303
b10 /
1&
#304
0&
#305
b11 A
0%
1.
b1 /
1&
#306
0&
#307
b10 /
1&
#308
0&
#309
1%
0.
b1 /
1&
#310
0&
#311
b10 /
1&
#312
0&
#313
b100 A
0%
1.
b1 /
1&
#314
0&
#315
b10 /
1&
#316
0&
#317
1%
0.
b1 /
1&
#318
0&
#319
b10 /
1&
#320
0&
#321
b101 A
0%
1.
b1 /
1&
#322
0&
#323
b10 /
1&
#324
0&
#325
1%
0.
b1 /
1&
#326
0&
#327
b10 /
1&
#328
0&
#329
b110 A
0%
1.
b1 /
1&
#330
0&
#331
b10 /
1&
#332
0&
#333
1%
0.
b1 /
1&
#334
0&
#335
b10 /
1&
#336
0&
#337
b111 A
0%
1.
b1 /
1&
#338
0&
#339
b10 /
1&
#340
0&
#341
1%
0.
b1 /
1&
#342
0&
#343
b10 /
1&
#344
0&
#345
b1000 A
0%
1.
b1 /
1&
#346
0&
#347
b10 /
1&
#348
0&
#349
1%
0.
b1 /
1&
#350
0&
#351
b10 /
1&
#352
0&
#353
b1001 A
0%
1.
b1 /
1&
#354
0&
#355
b10 /
1&
#356
0&
#357
1%
0.
b1 /
1&
#358
0&
#359
b10 /
1&
#360
0&
#361
b1010 A
0%
1.
b1 /
1&
#362
0&
#363
b10 /
1&
#364
0&
#365
1%
0.
b1 /
1&
#366
0&
#367
b10 /
1&
#368
0&
#369
b1011 A
0%
1.
b1 /
1&
#370
0&
#371
b10 /
1&
#372
0&
#373
1%
0.
b1 /
1&
#374
0&
#375
b10 /
1&
#376
0&
#377
b1100 A
0%
1.
b1 /
1&
#378
0&
#379
b10 /
1&
#380
0&
#381
1%
0.
b1 /
1&
#382
0&
#383
b10 /
1&
#384
0&
#385
b1101 A
0%
1.
b1 /
1&
#386
0&
#387
b10 /
1&
#388
0&
#389
1%
0.
b1 /
1&
#390
0&
#391
b10 /
1&
#392
0&
#393
b1110 A
0%
1.
b1 /
1&
#394
0&
#395
b10 /
1&
#396
0&
#397
1%
0.
b1 /
1&
#398
0&
#399
b10 /
1&
#400
0&
#401
b1111 A
0%
1.
b1 /
1&
#402
0&
#403
b10 /
1&
#404
0&
#405
1%
0.
b1 /
1&
#406
0&
#407
b10 /
1&
#408
0&
#409
b10000 A
0%
1.
b1 /
1&
#410
0&
#411
b10 /
1&
#412
0&
#413
1%
0.
b1 /
1&
#414
0&
#415
b10 /
1&
#416
0&
#417
b1 F
b0 A
b100 D
0%
1.
b1 /
1&
#418
0&
#419
b10 /
1&
#420
0&
#421
1%
0.
b1 /
1&
#422
0&
#423
b10 /
1&
#424
0&
#425
b1 A
0%
1.
b1 /
1&
#426
0&
#427
b10 /
1&
#428
0&
#429
1%
0.
b1 /
1&
#430
0&
#431
b10 /
1&
#432
0&
#433
b10 A
0%
1.
b1 /
1&
#434
0&
#435
b10 /
1&
#436
0&
#437
1%
0.
b1 /
1&
#438
0&
#439
b10 /
1&
#440
0&
#441
b11 A
0%
1.
b1 /
1&
#442
0&
#443
b10 /
1&
#444
0&
#445
1%
0.
b1 /
1&
#446
0&
#447
b10 /
1&
#448
0&
#449
b100 A
0%
1.
b1 /
1&
#450
0&
#451
b10 /
1&
#452
0&
#453
1%
0.
b1 /
1&
#454
0&
#455
b10 /
1&
#456
0&
#457
b101 A
0%
1.
b1 /
1&
#458
0&
#459
b10 /
1&
#460
0&
#461
1%
0.
b1 /
1&
#462
0&
#463
b10 /
1&
#464
0&
#465
b110 A
0%
1.
b1 /
1&
#466
0&
#467
b10 /
1&
#468
0&
#469
1%
0.
b1 /
1&
#470
0&
#471
b10 /
1&
#472
0&
#473
b111 A
0%
1.
b1 /
1&
#474
0&
#475
b10 /
1&
#476
0&
#477
1%
0.
b1 /
1&
#478
0&
#479
b10 /
1&
#480
0&
#481
b1000 A
0%
1.
b1 /
1&
#482
0&
#483
b10 /
1&
#484
0&
#485
1%
0.
b1 /
1&
#486
0&
#487
b10 /
1&
#488
0&
#489
b1001 A
0%
1.
b1 /
1&
#490
0&
#491
b10 /
1&
#492
0&
#493
1%
0.
b1 /
1&
#494
0&
#495
b10 /
1&
#496
0&
#497
b1010 A
0%
1.
b1 /
1&
#498
0&
#499
b10 /
1&
#500
0&
#501
1%
0.
b1 /
1&
#502
0&
#503
b10 /
1&
#504
0&
#505
b1011 A
0%
1.
b1 /
1&
#506
0&
#507
b10 /
1&
#508
0&
#509
1%
0.
b1 /
1&
#510
0&
#511
b10 /
1&
#512
0&
#513
b1100 A
0%
1.
b1 /
1&
#514
0&
#515
b10 /
1&
#516
0&
#517
1%
0.
b1 /
1&
#518
0&
#519
b10 /
1&
#520
0&
#521
b1101 A
0%
1.
b1 /
1&
#522
0&
#523
b10 /
1&
#524
0&
#525
1%
0.
b1 /
1&
#526
0&
#527
b10 /
1&
#528
0&
#529
b1110 A
0%
1.
b1 /
1&
#530
0&
#531
b10 /
1&
#532
0&
#533
1%
0.
b1 /
1&
#534
0&
#535
b10 /
1&
#536
0&
#537
b1111 A
0%
1.
b1 /
1&
#538
0&
#539
b10 /
1&
#540
0&
#541
1%
0.
b1 /
1&
#542
0&
#543
b10 /
1&
#544
0&
#545
b10000 A
0%
1.
b1 /
1&
#546
0&
#547
b10 /
1&
#548
0&
#549
1%
0.
b1 /
1&
#550
0&
#551
b10 /
1&
#552
0&
#553
b10 F
b0 A
b10 D
0%
1.
b1 /
1&
#554
0&
#555
b10 /
1&
#556
0&
#557
1%
0.
b1 /
1&
#558
0&
#559
b10 /
1&
#560
0&
#561
b1 A
0%
1.
b1 /
1&
#562
0&
#563
b10 /
1&
#564
0&
#565
1%
0.
b1 /
1&
#566
0&
#567
b10 /
1&
#568
0&
#569
b10 A
0%
1.
b1 /
1&
#570
0&
#571
b10 /
1&
#572
0&
#573
1%
0.
b1 /
1&
#574
0&
#575
b10 /
1&
#576
0&
#577
b11 A
0%
1.
b1 /
1&
#578
0&
#579
b10 /
1&
#580
0&
#581
1%
0.
b1 /
1&
#582
0&
#583
b10 /
1&
#584
0&
#585
b100 A
0%
1.
b1 /
1&
#586
0&
#587
b10 /
1&
#588
0&
#589
1%
0.
b1 /
1&
#590
0&
#591
b10 /
1&
#592
0&
#593
b101 A
0%
1.
b1 /
1&
#594
0&
#595
b10 /
1&
#596
0&
#597
1%
0.
b1 /
1&
#598
0&
#599
b10 /
1&
#600
0&
#601
b110 A
0%
1.
b1 /
1&
#602
0&
#603
b10 /
1&
#604
0&
#605
1%
0.
b1 /
1&
#606
0&
#607
b10 /
1&
#608
0&
#609
b111 A
0%
1.
b1 /
1&
#610
0&
#611
b10 /
1&
#612
0&
#613
1%
0.
b1 /
1&
#614
0&
#615
b10 /
1&
#616
0&
#617
b1000 A
0%
1.
b1 /
1&
#618
0&
#619
b10 /
1&
#620
0&
#621
1%
0.
b1 /
1&
#622
0&
#623
b10 /
1&
#624
0&
#625
b1001 A
0%
1.
b1 /
1&
#626
0&
#627
b10 /
1&
#628
0&
#629
1%
0.
b1 /
1&
#630
0&
#631
b10 /
1&
#632
0&
#633
b1010 A
0%
1.
b1 /
1&
#634
0&
#635
b10 /
1&
#636
0&
#637
1%
0.
b1 /
1&
#638
0&
#639
b10 /
1&
#640
0&
#641
b1011 A
0%
1.
b1 /
1&
#642
0&
#643
b10 /
1&
#644
0&
#645
1%
0.
b1 /
1&
#646
0&
#647
b10 /
1&
#648
0&
#649
b1100 A
0%
1.
b1 /
1&
#650
0&
#651
b10 /
1&
#652
0&
#653
1%
0.
b1 /
1&
#654
0&
#655
b10 /
1&
#656
0&
#657
b1101 A
0%
1.
b1 /
1&
#658
0&
#659
b10 /
1&
#660
0&
#661
1%
0.
b1 /
1&
#662
0&
#663
b10 /
1&
#664
0&
#665
b1110 A
0%
1.
b1 /
1&
#666
0&
#667
b10 /
1&
#668
0&
#669
1%
0.
b1 /
1&
#670
0&
#671
b10 /
1&
#672
0&
#673
b1111 A
0%
1.
b1 /
1&
#674
0&
#675
b10 /
1&
#676
0&
#677
1%
0.
b1 /
1&
#678
0&
#679
b10 /
1&
#680
0&
#681
b10000 A
0%
1.
b1 /
1&
#682
0&
#683
b10 /
1&
#684
0&
#685
1%
0.
b1 /
1&
#686
0&
#687
b10 /
1&
#688
0&
#689
b11 F
b0 A
b1 D
0%
1.
b1 /
1&
#690
0&
#691
b10 /
1&
#692
0&
#693
1%
0.
b1 /
1&
#694
0&
#695
b10 /
1&
#696
0&
#697
b1 A
1"
0%
1.
b1 /
1&
#698
0&
#699
b10 /
1&
#700
0&
#701
1%
0.
b1 /
1&
#702
0&
#703
b10 /
1&
#704
0&
#705
b10 A
0%
1.
b1 /
1&
#706
0&
#707
b10 /
1&
#708
0&
#709
1%
0.
b1 /
1&
#710
0&
#711
b10 /
1&
#712
0&
#713
b11 A
0%
1.
b1 /
1&
#714
0&
#715
b10 /
1&
#716
0&
#717
1%
0.
b1 /
1&
#718
0&
#719
b10 /
1&
#720
0&
#721
b100 A
0%
1.
b1 /
1&
#722
0&
#723
b10 /
1&
#724
0&
#725
1%
0.
b1 /
1&
#726
0&
#727
b10 /
1&
#728
0&
#729
b101 A
0%
1.
b1 /
1&
#730
0&
#731
b10 /
1&
#732
0&
#733
1%
0.
b1 /
1&
#734
0&
#735
b10 /
1&
#736
0&
#737
b110 A
0%
1.
b1 /
1&
#738
0&
#739
b10 /
1&
#740
0&
#741
1%
0.
b1 /
1&
#742
0&
#743
b10 /
1&
#744
0&
#745
b111 A
0%
1.
b1 /
1&
#746
0&
#747
b10 /
1&
#748
0&
#749
1%
0.
b1 /
1&
#750
0&
#751
b10 /
1&
#752
0&
#753
b1000 A
0%
1.
b1 /
1&
#754
0&
#755
b10 /
1&
#756
0&
#757
1%
0.
b1 /
1&
#758
0&
#759
b10 /
1&
#760
0&
#761
b1001 A
0%
1.
b1 /
1&
#762
0&
#763
b10 /
1&
#764
0&
#765
1%
0.
b1 /
1&
#766
0&
#767
b10 /
1&
#768
0&
#769
b1010 A
0%
1.
b1 /
1&
#770
0&
#771
b10 /
1&
#772
0&
#773
1%
0.
b1 /
1&
#774
0&
#775
b10 /
1&
#776
0&
#777
b1011 A
0%
1.
b1 /
1&
#778
0&
#779
b10 /
1&
#780
0&
#781
1%
0.
b1 /
1&
#782
0&
#783
b10 /
1&
#784
0&
#785
b1100 A
0%
1.
b1 /
1&
#786
0&
#787
b10 /
1&
#788
0&
#789
1%
0.
b1 /
1&
#790
0&
#791
b10 /
1&
#792
0&
#793
b1101 A
0%
1.
b1 /
1&
#794
0&
#795
b10 /
1&
#796
0&
#797
1%
0.
b1 /
1&
#798
0&
#799
b10 /
1&
#800
0&
#801
b1110 A
0%
1.
b1 /
1&
#802
0&
#803
b10 /
1&
#804
0&
#805
1%
0.
b1 /
1&
#806
0&
#807
b10 /
1&
#808
0&
#809
b1111 A
0%
1.
b1 /
1&
#810
0&
#811
b10 /
1&
#812
0&
#813
1%
0.
b1 /
1&
#814
0&
#815
b10 /
1&
#816
0&
#817
b10000 A
0%
1.
b1 /
1&
#818
0&
#819
b10 /
1&
#820
0&
#821
1%
0.
b1 /
1&
#822
0&
#823
b10 /
1&
#824
0&
#825
b100 F
b0 A
b0 D
0%
1.
b1 /
1&
#826
0&
#827
b10 /
1&
#828
0&
#829
1%
0.
b1 /
1&
#830
0&
#831
b10 /
1&
#832
0&
#833
b1 A
0"
0%
1.
b1 /
1&
#834
0&
#835
b10 /
1&
#836
0&
#837
1%
0.
b1 /
1&
#838
0&
#839
b10 /
1&
#840
0&
#841
b10 A
0%
1.
b1 /
1&
#842
0&
#843
b10 /
1&
#844
0&
#845
1%
0.
b1 /
1&
#846
0&
#847
b10 /
1&
#848
0&
#849
b11 A
0%
1.
b1 /
1&
#850
0&
#851
b10 /
1&
#852
0&
#853
1%
0.
b1 /
1&
#854
0&
#855
b10 /
1&
#856
0&
#857
b100 A
0%
1.
b1 /
1&
#858
0&
#859
b10 /
1&
#860
0&
#861
1%
0.
b1 /
1&
#862
0&
#863
b10 /
1&
#864
0&
#865
b101 A
0%
1.
b1 /
1&
#866
0&
#867
b10 /
1&
#868
0&
#869
1%
0.
b1 /
1&
#870
0&
#871
b10 /
1&
#872
0&
#873
b110 A
0%
1.
b1 /
1&
#874
0&
#875
b10 /
1&
#876
0&
#877
1%
0.
b1 /
1&
#878
0&
#879
b10 /
1&
#880
0&
#881
b111 A
0%
1.
b1 /
1&
#882
0&
#883
b10 /
1&
#884
0&
#885
1%
0.
b1 /
1&
#886
0&
#887
b10 /
1&
#888
0&
#889
b1000 A
0%
1.
b1 /
1&
#890
0&
#891
b10 /
1&
#892
0&
#893
1%
0.
b1 /
1&
#894
0&
#895
b10 /
1&
#896
0&
#897
b1001 A
0%
1.
b1 /
1&
#898
0&
#899
b10 /
1&
#900
0&
#901
1%
0.
b1 /
1&
#902
0&
#903
b10 /
1&
#904
0&
#905
b1010 A
0%
1.
b1 /
1&
#906
0&
#907
b10 /
1&
#908
0&
#909
1%
0.
b1 /
1&
#910
0&
#911
b10 /
1&
#912
0&
#913
b1011 A
0%
1.
b1 /
1&
#914
0&
#915
b10 /
1&
#916
0&
#917
1%
0.
b1 /
1&
#918
0&
#919
b10 /
1&
#920
0&
#921
b1100 A
0%
1.
b1 /
1&
#922
0&
#923
b10 /
1&
#924
0&
#925
1%
0.
b1 /
1&
#926
0&
#927
b10 /
1&
#928
0&
#929
b1101 A
0%
1.
b1 /
1&
#930
0&
#931
b10 /
1&
#932
0&
#933
1%
0.
b1 /
1&
#934
0&
#935
b10 /
1&
#936
0&
#937
b1110 A
0%
1.
b1 /
1&
#938
0&
#939
b10 /
1&
#940
0&
#941
1%
0.
b1 /
1&
#942
0&
#943
b10 /
1&
#944
0&
#945
b1111 A
0%
1.
b1 /
1&
#946
0&
#947
b10 /
1&
#948
0&
#949
1%
0.
b1 /
1&
#950
0&
#951
b10 /
1&
#952
0&
#953
b10000 A
0%
1.
b1 /
1&
#954
0&
#955
b10 /
1&
#956
0&
#957
1%
0.
b1 /
1&
#958
0&
#959
b10 /
1&
#960
0&
#961
b101 F
b0 A
0%
1.
b1 /
1&
#962
0&
#963
b10 /
1&
#964
0&
#965
1%
0.
b1 /
1&
#966
0&
#967
b10 /
1&
#968
0&
#969
b1 A
0%
1.
b1 /
1&
#970
0&
#971
b10 /
1&
#972
0&
#973
1%
0.
b1 /
1&
#974
0&
#975
b10 /
1&
#976
0&
#977
b10 A
0%
1.
b1 /
1&
#978
0&
#979
b10 /
1&
#980
0&
#981
1%
0.
b1 /
1&
#982
0&
#983
b10 /
1&
#984
0&
#985
b11 A
0%
1.
b1 /
1&
#986
0&
#987
b10 /
1&
#988
0&
#989
1%
0.
b1 /
1&
#990
0&
#991
b10 /
1&
#992
0&
#993
b100 A
0%
1.
b1 /
1&
#994
0&
#995
b10 /
1&
#996
0&
#997
1%
0.
b1 /
1&
#998
0&
#999
b10 /
1&
#1000
0&
#1001
b101 A
0%
1.
b1 /
1&
#1002
0&
#1003
b10 /
1&
#1004
0&
#1005
1%
0.
b1 /
1&
#1006
0&
#1007
b10 /
1&
#1008
0&
#1009
b110 A
0%
1.
b1 /
1&
#1010
0&
#1011
b10 /
1&
#1012
0&
#1013
1%
0.
b1 /
1&
#1014
0&
#1015
b10 /
1&
#1016
0&
#1017
b111 A
0%
1.
b1 /
1&
#1018
0&
#1019
b10 /
1&
#1020
0&
#1021
1%
0.
b1 /
1&
#1022
0&
#1023
b10 /
1&
#1024
0&
#1025
b1000 A
0%
1.
b1 /
1&
#1026
0&
#1027
b10 /
1&
#1028
0&
#1029
1%
0.
b1 /
1&
#1030
0&
#1031
b10 /
1&
#1032
0&
#1033
b1001 A
0%
1.
b1 /
1&
#1034
0&
#1035
b10 /
1&
#1036
0&
#1037
1%
0.
b1 /
1&
#1038
0&
#1039
b10 /
1&
#1040
0&
#1041
b1010 A
0%
1.
b1 /
1&
#1042
0&
#1043
b10 /
1&
#1044
0&
#1045
1%
0.
b1 /
1&
#1046
0&
#1047
b10 /
1&
#1048
0&
#1049
b1011 A
0%
1.
b1 /
1&
#1050
0&
#1051
b10 /
1&
#1052
0&
#1053
1%
0.
b1 /
1&
#1054
0&
#1055
b10 /
1&
#1056
0&
#1057
b1100 A
0%
1.
b1 /
1&
#1058
0&
#1059
b10 /
1&
#1060
0&
#1061
1%
0.
b1 /
1&
#1062
0&
#1063
b10 /
1&
#1064
0&
#1065
b1101 A
0%
1.
b1 /
1&
#1066
0&
#1067
b10 /
1&
#1068
0&
#1069
1%
0.
b1 /
1&
#1070
0&
#1071
b10 /
1&
#1072
0&
#1073
b1110 A
0%
1.
b1 /
1&
#1074
0&
#1075
b10 /
1&
#1076
0&
#1077
1%
0.
b1 /
1&
#1078
0&
#1079
b10 /
1&
#1080
0&
#1081
b1111 A
0%
1.
b1 /
1&
#1082
0&
#1083
b10 /
1&
#1084
0&
#1085
1%
0.
b1 /
1&
#1086
0&
#1087
b10 /
1&
#1088
0&
#1089
b10000 A
0%
1.
b1 /
1&
#1090
0&
#1091
b10 /
1&
#1092
0&
#1093
1%
0.
b1 /
1&
#1094
0&
#1095
b10 /
1&
#1096
0&
#1097
b110 F
b0 A
0%
1.
b1 /
1&
#1098
0&
#1099
b10 /
1&
#1100
0&
#1101
1%
0.
b1 /
1&
#1102
0&
#1103
b10 /
1&
#1104
0&
#1105
b1 A
0%
1.
b1 /
1&
#1106
0&
#1107
b10 /
1&
#1108
0&
#1109
1%
0.
b1 /
1&
#1110
0&
#1111
b10 /
1&
#1112
0&
#1113
b10 A
0%
1.
b1 /
1&
#1114
0&
#1115
b10 /
1&
#1116
0&
#1117
1%
0.
b1 /
1&
#1118
0&
#1119
b10 /
1&
#1120
0&
#1121
b11 A
0%
1.
b1 /
1&
#1122
0&
#1123
b10 /
1&
#1124
0&
#1125
1%
0.
b1 /
1&
#1126
0&
#1127
b10 /
1&
#1128
0&
#1129
b100 A
0%
1.
b1 /
1&
#1130
0&
#1131
b10 /
1&
#1132
0&
#1133
1%
0.
b1 /
1&
#1134
0&
#1135
b10 /
1&
#1136
0&
#1137
b101 A
0%
1.
b1 /
1&
#1138
0&
#1139
b10 /
1&
#1140
0&
#1141
1%
0.
b1 /
1&
#1142
0&
#1143
b10 /
1&
#1144
0&
#1145
b110 A
0%
1.
b1 /
1&
#1146
0&
#1147
b10 /
1&
#1148
0&
#1149
1%
0.
b1 /
1&
#1150
0&
#1151
b10 /
1&
#1152
0&
#1153
b111 A
0%
1.
b1 /
1&
#1154
0&
#1155
b10 /
1&
#1156
0&
#1157
1%
0.
b1 /
1&
#1158
0&
#1159
b10 /
1&
#1160
0&
#1161
b1000 A
0%
1.
b1 /
1&
#1162
0&
#1163
b10 /
1&
#1164
0&
#1165
1%
0.
b1 /
1&
#1166
0&
#1167
b10 /
1&
#1168
0&
#1169
b1001 A
0%
1.
b1 /
1&
#1170
0&
#1171
b10 /
1&
#1172
0&
#1173
1%
0.
b1 /
1&
#1174
0&
#1175
b10 /
1&
#1176
0&
#1177
b1010 A
0%
1.
b1 /
1&
#1178
0&
#1179
b10 /
1&
#1180
0&
#1181
1%
0.
b1 /
1&
#1182
0&
#1183
b10 /
1&
#1184
0&
#1185
b1011 A
0%
1.
b1 /
1&
#1186
0&
#1187
b10 /
1&
#1188
0&
#1189
1%
0.
b1 /
1&
#1190
0&
#1191
b10 /
1&
#1192
0&
#1193
b1100 A
0%
1.
b1 /
1&
#1194
0&
#1195
b10 /
1&
#1196
0&
#1197
1%
0.
b1 /
1&
#1198
0&
#1199
b10 /
1&
#1200
0&
#1201
b1101 A
0%
1.
b1 /
1&
#1202
0&
#1203
b10 /
1&
#1204
0&
#1205
1%
0.
b1 /
1&
#1206
0&
#1207
b10 /
1&
#1208
0&
#1209
b1110 A
0%
1.
b1 /
1&
#1210
0&
#1211
b10 /
1&
#1212
0&
#1213
1%
0.
b1 /
1&
#1214
0&
#1215
b10 /
1&
#1216
0&
#1217
b1111 A
0%
1.
b1 /
1&
#1218
0&
#1219
b10 /
1&
#1220
0&
#1221
1%
0.
b1 /
1&
#1222
0&
#1223
b10 /
1&
#1224
0&
#1225
b10000 A
0%
1.
b1 /
1&
#1226
0&
#1227
b10 /
1&
#1228
0&
#1229
1%
0.
b1 /
1&
#1230
0&
#1231
b10 /
1&
#1232
0&
#1233
b111 F
b0 A
0%
1.
b1 /
1&
#1234
0&
#1235
b10 /
1&
#1236
0&
#1237
1%
0.
b1 /
1&
#1238
0&
#1239
b10 /
1&
#1240
0&
#1241
b1 A
0%
1.
b1 /
1&
#1242
0&
#1243
b10 /
1&
#1244
0&
#1245
1%
0.
b1 /
1&
#1246
0&
#1247
b10 /
1&
#1248
0&
#1249
b10 A
0%
1.
b1 /
1&
#1250
0&
#1251
b10 /
1&
#1252
0&
#1253
1%
0.
b1 /
1&
#1254
0&
#1255
b10 /
1&
#1256
0&
#1257
b11 A
0%
1.
b1 /
1&
#1258
0&
#1259
b10 /
1&
#1260
0&
#1261
1%
0.
b1 /
1&
