simulation/modelsim/test1_dump.vcd
$date
	Sat Apr 26 18:45:32 2025
$end
$version
	ModelSim Version 2020.1
$end
$timescale
	1ns
$end

$scope module test1_tb $end
$var wire 1 ! cltx $end
$var wire 1 " clrx $end
$var wire 1 # data_in $end
$var reg 1 $ clk $end
$var wire 1 % count [3] $end
$var wire 1 & count [2] $end
$var wire 1 ' count [1] $end
$var wire 1 ( count [0] $end
$var wire 1 ) data [7] $end
$var wire 1 * data [6] $end
$var wire 1 + data [5] $end
$var wire 1 , data [4] $end
$var wire 1 - data [3] $end
$var wire 1 . data [2] $end
$var wire 1 / data [1] $end
$var wire 1 0 data [0] $end
$var wire 1 1 data_out $end

$scope module uut $end
$var wire 1 2 clk $end
$var wire 1 1 data_out $end
$var reg 1 3 dataline $end
$var wire 1 ! cltx $end
$var wire 1 " clrx $end
$var wire 1 ) data [7] $end
$var wire 1 * data [6] $end
$var wire 1 + data [5] $end
$var wire 1 , data [4] $end
$var wire 1 - data [3] $end
$var wire 1 . data [2] $end
$var wire 1 / data [1] $end
$var wire 1 0 data [0] $end
$var wire 1 % count [3] $end
$var wire 1 & count [2] $end
$var wire 1 ' count [1] $end
$var wire 1 ( count [0] $end
$var wire 1 4 datal $end

$scope module TX $end
$var wire 1 5 data [7] $end
$var wire 1 6 data [6] $end
$var wire 1 7 data [5] $end
$var wire 1 8 data [4] $end
$var wire 1 9 data [3] $end
$var wire 1 : data [2] $end
$var wire 1 ; data [1] $end
$var wire 1 < data [0] $end
$var wire 1 2 clk $end
$var reg 1 = data_out $end
$var reg 1 > cl $end
$var reg 11 ? data_buff [10:0] $end
$var reg 32 @ counter [31:0] $end
$var reg 1 A clk_div $end
$upscope $end

$scope module RX $end
$var wire 1 2 clk $end
$var wire 1 4 data_in $end
$var reg 1 B cl $end
$var reg 1 C data_out $end
$var reg 8 D data_val [7:0] $end
$var reg 4 E countO [3:0] $end
$var reg 4 F count [3:0] $end
$var reg 4 G filtercount [3:0] $end
$var reg 65 H data_buffrx [64:0] $end
$var reg 4 I bitcount [3:0] $end
$var reg 1 J flag $end
$var reg 32 K counter [31:0] $end
$var reg 1 L clk_div $end
$upscope $end
$upscope $end
$upscope $end
$enddefinitions $end
#1
$dumpvars
1$
13
1=
0>
b0xxxxxxxx11 ?
b10 @
0A
0B
1C
b0 D
b0 E
b0 F
b1 G
bx H
b0 I
0J
b1 K
1L
0!
0"
1#
0(
0'
0&
0%
00
0/
0.
0-
0,
0+
0*
0)
11
14
12
1<
0;
0:
09
18
07
06
15
$end
#2
0$
02
#3
1$
12
b11 @
0L
1B
1"
#4
0$
02
#5
1$
12
b100 @
1L
0B
0"
b1 F
b1 E
b0 F
b10 G
1(
#6
0$
02
#7
1$
12
b101 @
0L
1B
1"
#8
0$
02
#9
1$
12
b110 @
1L
0B
0"
b1 F
b10 E
b0 F
b11 G
0(
1'
#10
0$
02
#11
1$
12
b111 @
0L
1B
1"
#12
0$
02
#13
1$
12
b1000 @
1L
0B
0"
b1 F
b11 E
b0 F
b100 G
1(
#14
0$
02
#15
1$
12
b1001 @
0L
1B
1"
#16
0$
02
#17
1$
12
b1010 @
1L
0B
0"
b1 F
b100 E
b0 F
b101 G
0(
0'
1&
#18
0$
02
#19
1$
12
b1011 @
0L
1B
1"
#20
0$
02
#21
1$
12
b1100 @
1L
0B
0"
b1 F
b101 E
b0 F
b110 G
1(
#22
0$
02
#23
1$
12
b1101 @
0L
1B
1"
#24
0$
02
#25
1$
12
b1110 @
1L
0B
0"
b1 F
b110 E
b0 F
b111 G
0(
1'
#26
0$
02
#27
1$
12
b1111 @
0L
1B
1"
#28
0$
02
#29
1$
12
b10000 @
1L
0B
0"
b1 F
b111 E
b0 F
b1000 G
1(
#30
0$
02
#31
1$
12
1A
b1 @
0L
1B
1"
0=
bx110 ?
04
03
0#
#32
0$
02
#33
1$
12
b10 @
1L
0B
0"
0C
b1 F
b1000 E
1J
b0 F
b0 G
01
0(
0'
0&
1%
#34
0$
02
#35
1$
12
b11 @
0L
1B
1"
#36
0$
02
#37
1$
12
b100 @
1L
0B
0"
b1 F
b0 E
0%
#38
0$
02
#39
1$
12
b101 @
0L
1B
1"
#40
0$
02
#41
1$
12
b110 @
1L
0B
0"
b10 F
#42
0$
02
#43
1$
12
b111 @
0L
1B
1"
#44
0$
02
#45
1$
12
b1000 @
1L
0B
0"
b11 F
#46
0$
02
#47
1$
12
b1001 @
0L
1B
1"
#48
0$
02
#49
1$
12
b1010 @
1L
0B
0"
b100 F
#50
0$
02
#51
1$
12
b1011 @
0L
1B
1"
#52
0$
02
#53
1$
12
b1100 @
1L
0B
0"
b101 F
#54
0$
02
#55
1$
12
b1101 @
0L
1B
1"
#56
0$
02
#57
1$
12
b1110 @
1L
0B
0"
b110 F
#58
0$
02
#59
1$
12
b1111 @
0L
1B
1"
#60
0$
02
#61
1$
12
b10000 @
1L
0B
0"
b111 F
#62
0$
02
#63
1$
12
0A
b1 @
1>
0L
1B
1!
1"
#64
0$
02
#65
1$
12
b10 @
1L
0B
0"
b1000 F
#66
0$
02
#67
1$
12
b11 @
0L
1B
1"
#68
0$
02
#69
1$
12
b100 @
1L
0B
0"
b1001 F
#70
0$
02
#71
1$
12
b101 @
0L
1B
1"
#72
0$
02
#73
1$
12
b110 @
1L
0B
0"
b1010 F
#74
0$
02
#75
1$
12
b111 @
0L
1B
1"
#76
0$
02
#77
1$
12
b1000 @
1L
0B
0"
b1011 F
#78
0$
02
#79
1$
12
b1001 @
0L
1B
1"
#80
0$
02
#81
1$
12
b1010 @
1L
0B
0"
b1100 F
#82
0$
02
#83
1$
12
b1011 @
0L
1B
1"
#84
0$
02
#85
1$
12
b1100 @
1L
0B
0"
b1101 F
#86
0$
02
#87
1$
12
b1101 @
0L
1B
1"
#88
0$
02
#89
1$
12
b1110 @
1L
0B
0"
b1110 F
#90
0$
02
#91
1$
12
b1111 @
0L
1B
1"
#92
0$
02
#93
1$
12
b10000 @
1L
0B
0"
b1111 F
#94
0$
02
#95
1$
12
1A
b1 @
0>
0L
1B
0!
1"
x=
bx1100 ?
x4
x3
x#
#96
0$
02
#97
1$
12
b10 @
1L
0B
0"
xC
b0 F
x1
#98
0$
02
#99
1$
12
b11 @
0L
1B
1"
