simulation/modelsim/uart_top_tb.vcd
$date
	Tue May 06 11:04:15 2025
$end
$version
	ModelSim Version 2020.1
$end
$timescale
	1ns
$end

$scope module TX_tb $end
$var reg 1 ! clk $end
$var wire 1 " clkn $end
$var reg 1 # rxrst $end
$var reg 1 $ txrst $end
$var wire 1 % tx_line $end
$var wire 1 & stat [1] $end
$var wire 1 ' stat [0] $end
$var wire 1 ( received_data [7] $end
$var wire 1 ) received_data [6] $end
$var wire 1 * received_data [5] $end
$var wire 1 + received_data [4] $end
$var wire 1 , received_data [3] $end
$var wire 1 - received_data [2] $end
$var wire 1 . received_data [1] $end
$var wire 1 / received_data [0] $end
$var wire 1 0 btn $end

$scope module uut $end
$var wire 1 1 clk $end
$var wire 1 2 txrst $end
$var wire 1 3 rxrst $end
$var wire 1 4 rst $end
$var wire 1 0 Rx $end
$var wire 1 % Tx $end
$var wire 1 ( data [7] $end
$var wire 1 ) data [6] $end
$var wire 1 * data [5] $end
$var wire 1 + data [4] $end
$var wire 1 , data [3] $end
$var wire 1 - data [2] $end
$var wire 1 . data [1] $end
$var wire 1 / data [0] $end
$var wire 1 & test [1] $end
$var wire 1 ' test [0] $end
$var reg 1 5 clkN $end
$var wire 1 6 datal $end
$var wire 1 7 tx [7] $end
$var wire 1 8 tx [6] $end
$var wire 1 9 tx [5] $end
$var wire 1 : tx [4] $end
$var wire 1 ; tx [3] $end
$var wire 1 < tx [2] $end
$var wire 1 = tx [1] $end
$var wire 1 > tx [0] $end
$var wire 1 ? rx [7] $end
$var wire 1 @ rx [6] $end
$var wire 1 A rx [5] $end
$var wire 1 B rx [4] $end
$var wire 1 C rx [3] $end
$var wire 1 D rx [2] $end
$var wire 1 E rx [1] $end
$var wire 1 F rx [0] $end
$var wire 1 G dtx $end
$var reg 1 H clkn $end
$var reg 8 I fixed_data [7:0] $end
$var reg 32 J counter [31:0] $end
$var reg 64 K buff [63:0] $end
$var wire 1 L stat $end
$var reg 1 M flg $end

$scope module TX $end
$var parameter 2 N IDLE $end
$var parameter 2 O START $end
$var parameter 2 P DATA $end
$var parameter 2 Q STOP $end
$var parameter 32 R CLKS_PER_BIT $end
$var parameter 32 S CLKSidel $end
$var wire 1 T clk $end
$var wire 1 2 rst_n $end
$var wire 1 U data [7] $end
$var wire 1 V data [6] $end
$var wire 1 W data [5] $end
$var wire 1 X data [4] $end
$var wire 1 Y data [3] $end
$var wire 1 Z data [2] $end
$var wire 1 [ data [1] $end
$var wire 1 \ data [0] $end
$var wire 1 ] start $end
$var reg 1 ^ data_out $end
$var reg 2 _ test [1:0] $end
$var reg 2 ` dt [1:0] $end
$var reg 1 a status $end
$var reg 8 b data_buff [7:0] $end
$var reg 1 c curr_stat $end
$var reg 20 d clk_counter [19:0] $end
$var reg 4 e flag [3:0] $end
$var reg 2 f STATE [1:0] $end
$var reg 32 g counter [31:0] $end
$var reg 4 h bit_counter [3:0] $end
$var reg 1 i stat $end
$upscope $end

$scope module RX $end
$var parameter 32 j CLKS_PER_BIT $end
$var parameter 2 k IDLE $end
$var parameter 2 l START $end
$var parameter 2 m DATA $end
$var parameter 2 n STOP $end
$var wire 1 o clk $end
$var wire 1 0 data_in $end
$var wire 1 3 rst_n $end
$var reg 8 p data_val [7:0] $end
$var reg 2 q st [1:0] $end
$var reg 1 r dt $end
$var wire 1 s btn $end
$var reg 8 t data [7:0] $end
$var reg 4 u count [3:0] $end
$var reg 16 v clk_counter [15:0] $end
$var reg 4 w filtercount [3:0] $end
$var reg 65 x data_buffrx [64:0] $end
$var reg 2 y STATE [1:0] $end
$var reg 4 z bitcount [3:0] $end
$var reg 1 { flag $end
$var reg 1 | statflag $end
$upscope $end
$upscope $end
$upscope $end
$enddefinitions $end
#0
$dumpvars
0!
1#
1$
x5
0H
b1000 I
b0 J
b1001100001110110010101000011001000010000 K
1M
x^
bx _
bx `
xa
bx b
xc
bx d
bx e
bx f
bx g
bx h
1i
bx p
bx q
xr
bx t
bx u
bx v
bx w
bx x
b0 y
bx z
1{
1|
b0 N
b1 O
b10 P
b11 Q
b10000 R
b10000 S
b10000 j
b0 k
b1 l
b10 m
b11 n
x"
x%
x'
x&
x/
x.
x-
x,
x+
x*
x)
x(
z0
z6
z>
z=
z<
z;
z:
z9
z8
z7
zF
zE
zD
zC
zB
zA
z@
z?
zG
xL
12
13
01
z4
0o
1]
0\
0[
0Z
1Y
0X
0W
0V
0U
0T
zs
$end
#10
0#
0$
03
02
b0 e
b0 f
b0 g
b0 h
0i
b0 _
0'
0&
1^
b1000 b
b0 d
b0 u
b0 z
0|
1%
#12
1#
1$
13
12
#13
1!
11
b1 J
#14
0!
01
#15
1!
11
b10 J
#16
0!
01
#17
1!
11
b11 J
b1 J
1H
05
0"
1T
1o
b0 q
b1 d
#18
0!
01
#19
1!
11
b10 J
#20
0!
01
#21
1!
11
b11 J
b1 J
0H
15
1"
0T
0o
#22
0!
01
#23
1!
11
b10 J
#24
0!
01
#25
1!
11
b11 J
b1 J
1H
05
0"
1T
1o
b10 d
#26
0!
01
#27
1!
11
b10 J
#28
0!
01
#29
1!
11
b11 J
b1 J
0H
15
1"
0T
0o
#30
0!
01
#31
1!
11
b10 J
#32
0!
01
#33
1!
11
b11 J
b1 J
1H
05
0"
1T
1o
b11 d
#34
0!
01
#35
1!
11
b10 J
#36
0!
01
#37
1!
11
b11 J
b1 J
0H
15
1"
0T
0o
#38
0!
01
#39
1!
11
b10 J
#40
0!
01
#41
1!
11
b11 J
b1 J
1H
05
0"
1T
1o
b100 d
#42
0!
01
#43
1!
11
b10 J
#44
0!
01
#45
1!
11
b11 J
b1 J
0H
15
1"
0T
0o
#46
0!
01
#47
1!
11
b10 J
#48
0!
01
#49
1!
11
b11 J
b1 J
1H
05
0"
1T
1o
b101 d
#50
0!
01
#51
1!
11
b10 J
#52
0!
01
#53
1!
11
b11 J
b1 J
0H
15
1"
0T
0o
#54
0!
01
#55
1!
11
b10 J
#56
0!
01
#57
1!
11
b11 J
b1 J
1H
05
0"
1T
1o
b110 d
#58
0!
01
#59
1!
11
b10 J
#60
0!
01
#61
1!
11
b11 J
b1 J
0H
15
1"
0T
0o
#62
0!
01
#63
1!
11
b10 J
#64
0!
01
#65
1!
11
b11 J
b1 J
1H
05
0"
1T
1o
b111 d
#66
0!
01
#67
1!
11
b10 J
#68
0!
01
#69
1!
11
b11 J
b1 J
0H
15
1"
0T
0o
#70
0!
01
#71
1!
11
b10 J
#72
0!
01
#73
1!
11
b11 J
b1 J
1H
05
0"
1T
1o
b1000 d
#74
0!
01
#75
1!
11
b10 J
#76
0!
01
#77
1!
11
b11 J
b1 J
0H
15
1"
0T
0o
#78
0!
01
#79
1!
11
b10 J
#80
0!
01
#81
1!
11
b11 J
b1 J
1H
05
0"
1T
1o
b1001 d
#82
0!
01
#83
1!
11
b10 J
#84
0!
01
#85
1!
11
b11 J
b1 J
0H
15
1"
0T
0o
#86
0!
01
#87
1!
11
b10 J
#88
0!
01
#89
1!
11
b11 J
b1 J
1H
05
0"
1T
1o
b1010 d
#90
0!
01
#91
1!
11
b10 J
#92
0!
01
#93
1!
11
b11 J
b1 J
0H
15
1"
0T
0o
#94
0!
01
#95
1!
11
b10 J
#96
0!
01
#97
1!
11
b11 J
b1 J
1H
05
0"
1T
1o
b1011 d
#98
0!
01
#99
1!
11
b10 J
#100
0!
01
#101
1!
11
b11 J
b1 J
0H
15
1"
0T
0o
#102
0!
01
#103
1!
11
b10 J
#104
0!
01
#105
1!
11
b11 J
b1 J
1H
05
0"
1T
1o
b1100 d
#106
0!
01
#107
1!
11
b10 J
#108
0!
01
#109
1!
11
b11 J
b1 J
0H
15
1"
0T
0o
#110
0!
01
#111
1!
11
b10 J
#112
0!
01
#113
1!
11
b11 J
b1 J
1H
05
0"
1T
1o
b1101 d
#114
0!
01
#115
1!
11
b10 J
#116
0!
01
#117
1!
11
b11 J
b1 J
0H
15
1"
0T
0o
#118
0!
01
#119
1!
11
b10 J
#120
0!
01
#121
1!
11
b11 J
b1 J
1H
05
0"
1T
1o
b1110 d
#122
0!
01
#123
1!
11
b10 J
#124
0!
01
#125
1!
11
b11 J
b1 J
0H
15
1"
0T
0o
#126
0!
01
#127
1!
11
b10 J
#128
0!
01
#129
1!
11
b11 J
b1 J
1H
05
0"
1T
1o
b1111 d
#130
0!
01
#131
1!
11
b10 J
#132
0!
01
#133
1!
11
b11 J
b1 J
0H
15
1"
0T
0o
#134
0!
01
#135
1!
11
b10 J
#136
0!
01
#137
1!
11
b11 J
b1 J
1H
05
0"
1T
1o
b10000 d
#138
0!
01
#139
1!
11
b10 J
#140
0!
01
#141
1!
11
b11 J
b1 J
0H
15
1"
0T
0o
#142
0!
01
#143
1!
11
b10 J
#144
0!
01
#145
1!
11
b11 J
b1 J
1H
05
0"
1T
1o
b1 f
b0 d
#146
0!
01
#147
1!
11
b10 J
#148
0!
01
#149
1!
11
b11 J
b1 J
0H
15
1"
0T
0o
#150
0!
01
#151
1!
11
b10 J
#152
0!
01
#153
1!
11
b11 J
b1 J
1H
05
0"
1T
1o
b1 _
1'
0^
b1 d
0%
#154
0!
01
#155
1!
11
b10 J
#156
0!
01
#157
1!
11
b11 J
b1 J
0H
15
1"
0T
0o
#158
0!
01
#159
1!
11
b10 J
#160
0!
01
#161
1!
11
b11 J
b1 J
1H
05
0"
1T
1o
b10 d
#162
0!
01
#163
1!
11
b10 J
#164
0!
01
#165
1!
11
b11 J
b1 J
0H
15
1"
0T
0o
#166
0!
01
#167
1!
11
b10 J
#168
0!
01
#169
1!
11
b11 J
b1 J
1H
05
0"
1T
1o
b11 d
#170
0!
01
#171
1!
11
b10 J
#172
0!
01
#173
1!
11
b11 J
b1 J
0H
15
1"
0T
0o
#174
0!
01
#175
1!
11
b10 J
#176
0!
01
#177
1!
11
b11 J
b1 J
1H
05
0"
1T
1o
b100 d
#178
0!
01
#179
1!
11
b10 J
#180
0!
01
#181
1!
11
b11 J
b1 J
0H
15
1"
0T
0o
#182
0!
01
#183
1!
11
b10 J
#184
0!
01
#185
1!
11
b11 J
b1 J
1H
05
0"
1T
1o
b101 d
#186
0!
01
#187
1!
11
b10 J
#188
0!
01
#189
1!
11
b11 J
b1 J
0H
15
1"
0T
0o
#190
0!
01
#191
1!
11
b10 J
#192
0!
01
#193
1!
11
b11 J
b1 J
1H
05
0"
1T
1o
b110 d
#194
0!
01
#195
1!
11
b10 J
#196
0!
01
#197
1!
11
b11 J
b1 J
0H
15
1"
0T
0o
#198
0!
01
#199
1!
11
b10 J
#200
0!
01
#201
1!
11
b11 J
b1 J
1H
05
0"
1T
1o
b111 d
#202
0!
01
#203
1!
11
b10 J
#204
0!
01
#205
1!
11
b11 J
b1 J
0H
15
1"
0T
0o
#206
0!
01
#207
1!
11
b10 J
#208
0!
01
#209
1!
11
b11 J
b1 J
1H
05
0"
1T
1o
b1000 d
#210
0!
01
#211
1!
11
b10 J
#212
0!
01
#213
1!
11
b11 J
b1 J
0H
15
1"
0T
0o
#214
0!
01
#215
1!
11
b10 J
#216
0!
01
#217
1!
11
b11 J
b1 J
1H
05
0"
1T
1o
b1001 d
#218
0!
01
#219
1!
11
b10 J
#220
0!
01
#221
1!
11
b11 J
b1 J
0H
15
1"
0T
0o
#222
0!
01
#223
1!
11
b10 J
#224
0!
01
#225
1!
11
b11 J
b1 J
1H
05
0"
1T
1o
b1010 d
#226
0!
01
#227
1!
11
b10 J
#228
0!
01
#229
1!
11
b11 J
b1 J
0H
15
1"
0T
0o
#230
0!
01
#231
1!
11
b10 J
#232
0!
01
#233
1!
11
b11 J
b1 J
1H
05
0"
1T
1o
b1011 d
#234
0!
01
#235
1!
11
b10 J
#236
0!
01
#237
1!
11
b11 J
b1 J
0H
15
1"
0T
0o
#238
0!
01
#239
1!
11
b10 J
#240
0!
01
#241
1!
11
b11 J
b1 J
1H
05
0"
1T
1o
b1100 d
#242
0!
01
#243
1!
11
b10 J
#244
0!
01
#245
1!
11
b11 J
b1 J
0H
15
1"
0T
0o
#246
0!
01
#247
1!
11
b10 J
#248
0!
01
#249
1!
11
b11 J
b1 J
1H
05
0"
1T
1o
b1101 d
#250
0!
01
#251
1!
11
b10 J
#252
0!
01
#253
1!
11
b11 J
b1 J
0H
15
1"
0T
0o
#254
0!
01
#255
1!
11
b10 J
#256
0!
01
#257
1!
11
b11 J
b1 J
1H
05
0"
1T
1o
b1110 d
#258
0!
01
#259
1!
11
b10 J
#260
0!
01
#261
1!
11
b11 J
b1 J
0H
15
1"
0T
0o
#262
0!
01
#263
1!
11
b10 J
#264
0!
01
#265
1!
11
b11 J
b1 J
1H
05
0"
1T
1o
b1111 d
#266
0!
01
#267
1!
11
b10 J
#268
0!
01
#269
1!
11
b11 J
b1 J
0H
15
1"
0T
0o
#270
0!
01
#271
1!
11
b10 J
#272
0!
01
#273
1!
11
b11 J
b1 J
1H
05
0"
1T
1o
b10000 d
#274
0!
01
#275
1!
11
b10 J
#276
0!
01
#277
1!
11
b11 J
b1 J
0H
15
1"
0T
0o
#278
0!
01
#279
1!
11
b10 J
#280
0!
01
#281
1!
11
b11 J
b1 J
1H
05
0"
1T
1o
b0 d
b10 f
#282
0!
01
#283
1!
11
b10 J
#284
0!
01
#285
1!
11
b11 J
b1 J
0H
15
1"
0T
0o
#286
0!
01
#287
1!
11
b10 J
#288
0!
01
#289
1!
11
b11 J
b1 J
1H
05
0"
1T
1o
b10 _
0'
1&
b1 d
#290
0!
01
#291
1!
11
b10 J
#292
0!
01
#293
1!
11
b11 J
b1 J
0H
15
1"
0T
0o
#294
0!
01
#295
1!
11
b10 J
#296
0!
01
#297
1!
11
b11 J
b1 J
1H
05
0"
1T
1o
b10 d
#298
0!
01
#299
1!
11
b10 J
#300
0!
01
#301
1!
11
b11 J
b1 J
0H
15
1"
0T
0o
#302
0!
01
#303
1!
11
b10 J
#304
0!
01
#305
1!
11
b11 J
b1 J
1H
05
0"
1T
1o
b11 d
#306
0!
01
#307
1!
11
b10 J
#308
0!
01
#309
1!
11
b11 J
b1 J
0H
15
1"
0T
0o
#310
0!
01
#311
1!
11
b10 J
#312
0!
01
#313
1!
11
b11 J
b1 J
1H
05
0"
1T
1o
b100 d
#314
0!
01
#315
1!
11
b10 J
#316
0!
01
#317
1!
11
b11 J
b1 J
0H
15
1"
0T
0o
#318
0!
01
#319
1!
11
b10 J
#320
0!
01
#321
1!
11
b11 J
b1 J
1H
05
0"
1T
1o
b101 d
#322
0!
01
#323
1!
11
b10 J
#324
0!
01
#325
1!
11
b11 J
b1 J
0H
15
1"
0T
0o
#326
0!
01
#327
1!
11
b10 J
#328
0!
01
#329
1!
11
b11 J
b1 J
1H
05
0"
1T
1o
b110 d
#330
0!
01
#331
1!
11
b10 J
#332
0!
01
#333
1!
11
b11 J
b1 J
0H
15
1"
0T
0o
#334
0!
01
#335
1!
11
b10 J
#336
0!
01
#337
1!
11
b11 J
b1 J
1H
05
0"
1T
1o
b111 d
#338
0!
01
#339
1!
11
b10 J
#340
0!
01
#341
1!
11
b11 J
b1 J
0H
15
1"
0T
0o
#342
0!
01
#343
1!
11
b10 J
#344
0!
01
#345
1!
11
b11 J
b1 J
1H
05
0"
1T
1o
b1000 d
#346
0!
01
#347
1!
11
b10 J
#348
0!
01
#349
1!
11
b11 J
b1 J
0H
15
1"
0T
0o
#350
0!
01
#351
1!
11
b10 J
#352
0!
01
#353
1!
11
b11 J
b1 J
1H
05
0"
1T
1o
b1001 d
#354
0!
01
#355
1!
11
b10 J
#356
0!
01
#357
1!
11
b11 J
b1 J
0H
15
1"
0T
0o
#358
0!
01
#359
1!
11
b10 J
#360
0!
01
#361
1!
11
b11 J
b1 J
1H
05
0"
1T
1o
b1010 d
#362
0!
01
#363
1!
11
b10 J
#364
0!
01
#365
1!
11
b11 J
b1 J
0H
15
1"
0T
0o
#366
0!
01
#367
1!
11
b10 J
#368
0!
01
#369
1!
11
b11 J
b1 J
1H
05
0"
1T
1o
b1011 d
#370
0!
01
#371
1!
11
b10 J
#372
0!
01
#373
1!
11
b11 J
b1 J
0H
15
1"
0T
0o
#374
0!
01
#375
1!
11
b10 J
#376
0!
01
#377
1!
11
b11 J
b1 J
1H
05
0"
1T
1o
b1100 d
#378
0!
01
#379
1!
11
b10 J
#380
0!
01
#381
1!
11
b11 J
b1 J
0H
15
1"
0T
0o
#382
0!
01
#383
1!
11
b10 J
#384
0!
01
#385
1!
11
b11 J
b1 J
1H
05
0"
1T
1o
b1101 d
#386
0!
01
#387
1!
11
b10 J
#388
0!
01
#389
1!
11
b11 J
b1 J
0H
15
1"
0T
0o
#390
0!
01
#391
1!
11
b10 J
#392
0!
01
#393
1!
11
b11 J
b1 J
1H
05
0"
1T
1o
b1110 d
#394
0!
01
#395
1!
11
b10 J
#396
0!
01
#397
1!
11
b11 J
b1 J
0H
15
1"
0T
0o
#398
0!
01
#399
1!
11
b10 J
#400
0!
01
#401
1!
11
b11 J
b1 J
1H
05
0"
1T
1o
b1111 d
#402
0!
01
#403
1!
11
b10 J
#404
0!
01
#405
1!
11
b11 J
b1 J
0H
15
1"
0T
0o
#406
0!
01
#407
1!
11
b10 J
#408
0!
01
#409
1!
11
b11 J
b1 J
1H
05
0"
1T
1o
b10000 d
#410
0!
01
#411
1!
11
b10 J
#412
0!
01
#413
1!
11
b11 J
b1 J
0H
15
1"
0T
0o
#414
0!
01
#415
1!
11
b10 J
#416
0!
01
#417
1!
11
b11 J
b1 J
1H
05
0"
1T
1o
b100 b
b0 d
b1 e
#418
0!
01
#419
1!
11
b10 J
#420
0!
01
#421
1!
11
b11 J
b1 J
0H
15
1"
0T
0o
#422
0!
01
#423
1!
11
b10 J
#424
0!
01
#425
1!
11
b11 J
b1 J
1H
05
0"
1T
1o
b1 d
#426
0!
01
#427
1!
11
b10 J
#428
0!
01
#429
1!
11
b11 J
b1 J
0H
15
1"
0T
0o
#430
0!
01
#431
1!
11
b10 J
#432
0!
01
#433
1!
11
b11 J
b1 J
1H
05
0"
1T
1o
b10 d
#434
0!
01
#435
1!
11
b10 J
#436
0!
01
#437
1!
11
b11 J
b1 J
0H
15
1"
0T
0o
#438
0!
01
#439
1!
11
b10 J
#440
0!
01
#441
1!
11
b11 J
b1 J
1H
05
0"
1T
1o
b11 d
#442
0!
01
#443
1!
11
b10 J
#444
0!
01
#445
1!
11
b11 J
b1 J
0H
15
1"
0T
0o
#446
0!
01
#447
1!
11
b10 J
#448
0!
01
#449
1!
11
b11 J
b1 J
1H
05
0"
1T
1o
b100 d
#450
0!
01
#451
1!
11
b10 J
#452
0!
01
#453
1!
11
b11 J
b1 J
0H
15
1"
0T
0o
#454
0!
01
#455
1!
11
b10 J
#456
0!
01
#457
1!
11
b11 J
b1 J
1H
05
0"
1T
1o
b101 d
#458
0!
01
#459
1!
11
b10 J
#460
0!
01
#461
1!
11
b11 J
b1 J
0H
15
1"
0T
0o
#462
0!
01
#463
1!
11
b10 J
#464
0!
01
#465
1!
11
b11 J
b1 J
1H
05
0"
1T
1o
b110 d
#466
0!
01
#467
1!
11
b10 J
#468
0!
01
#469
1!
11
b11 J
b1 J
0H
15
1"
0T
0o
#470
0!
01
#471
1!
11
b10 J
#472
0!
01
#473
1!
11
b11 J
b1 J
1H
05
0"
1T
1o
b111 d
#474
0!
01
#475
1!
11
b10 J
#476
0!
01
#477
1!
11
b11 J
b1 J
0H
15
1"
0T
0o
#478
0!
01
#479
1!
11
b10 J
#480
0!
01
#481
1!
11
b11 J
b1 J
1H
05
0"
1T
1o
b1000 d
#482
0!
01
#483
1!
11
b10 J
#484
0!
01
#485
1!
11
b11 J
b1 J
0H
15
1"
0T
0o
#486
0!
01
#487
1!
11
b10 J
#488
0!
01
#489
1!
11
b11 J
b1 J
1H
05
0"
1T
1o
b1001 d
#490
0!
01
#491
1!
11
b10 J
#492
0!
01
#493
1!
11
b11 J
b1 J
0H
15
1"
0T
0o
#494
0!
01
#495
1!
11
b10 J
#496
0!
01
#497
1!
11
b11 J
b1 J
1H
05
0"
1T
1o
b1010 d
#498
0!
01
#499
1!
11
b10 J
#500
0!
01
#501
1!
11
b11 J
b1 J
0H
15
1"
0T
0o
#502
0!
01
#503
1!
11
b10 J
#504
0!
01
#505
1!
11
b11 J
b1 J
1H
05
0"
1T
1o
b1011 d
#506
0!
01
#507
1!
11
b10 J
#508
0!
01
#509
1!
11
b11 J
b1 J
0H
15
1"
0T
0o
#510
0!
01
#511
1!
11
b10 J
#512
0!
01
#513
1!
11
b11 J
b1 J
1H
05
0"
1T
1o
b1100 d
#514
0!
01
#515
1!
11
b10 J
#516
0!
01
#517
1!
11
b11 J
b1 J
0H
15
1"
0T
0o
#518
0!
01
#519
1!
11
b10 J
#520
0!
01
#521
1!
11
b11 J
b1 J
1H
05
0"
1T
1o
b1101 d
#522
0!
01
#523
1!
11
b10 J
#524
0!
01
#525
1!
11
b11 J
b1 J
0H
15
1"
0T
0o
#526
0!
01
#527
1!
11
b10 J
#528
0!
01
#529
1!
11
b11 J
b1 J
1H
05
0"
1T
1o
b1110 d
#530
0!
01
#531
1!
11
b10 J
#532
0!
01
#533
1!
11
b11 J
b1 J
0H
15
1"
0T
0o
#534
0!
01
#535
1!
11
b10 J
#536
0!
01
#537
1!
11
b11 J
b1 J
1H
05
0"
1T
1o
b1111 d
#538
0!
01
#539
1!
11
b10 J
#540
0!
01
#541
1!
11
b11 J
b1 J
0H
15
1"
0T
0o
#542
0!
01
#543
1!
11
b10 J
#544
0!
01
#545
1!
11
b11 J
b1 J
1H
05
0"
1T
1o
b10000 d
#546
0!
01
#547
1!
11
b10 J
#548
0!
01
#549
1!
11
b11 J
b1 J
0H
15
1"
0T
0o
#550
0!
01
#551
1!
11
b10 J
#552
0!
01
#553
1!
11
b11 J
b1 J
1H
05
0"
1T
1o
b10 b
b0 d
b10 e
#554
0!
01
#555
1!
11
b10 J
#556
0!
01
#557
1!
11
b11 J
b1 J
0H
15
1"
0T
0o
#558
0!
01
#559
1!
11
b10 J
#560
0!
01
#561
1!
11
b11 J
b1 J
1H
05
0"
1T
1o
b1 d
#562
0!
01
#563
1!
11
b10 J
#564
0!
01
#565
1!
11
b11 J
b1 J
0H
15
1"
0T
0o
#566
0!
01
#567
1!
11
b10 J
#568
0!
01
#569
1!
11
b11 J
b1 J
1H
05
0"
1T
1o
b10 d
#570
0!
01
#571
1!
11
b10 J
#572
0!
01
#573
1!
11
b11 J
b1 J
0H
15
1"
0T
0o
#574
0!
01
#575
1!
11
b10 J
#576
0!
01
#577
1!
11
b11 J
b1 J
1H
05
0"
1T
1o
b11 d
#578
0!
01
#579
1!
11
b10 J
#580
0!
01
#581
1!
11
b11 J
b1 J
0H
15
1"
0T
0o
#582
0!
01
#583
1!
11
b10 J
#584
0!
01
#585
1!
11
b11 J
b1 J
1H
05
0"
1T
1o
b100 d
#586
0!
01
#587
1!
11
b10 J
#588
0!
01
#589
1!
11
b11 J
b1 J
0H
15
1"
0T
0o
#590
0!
01
#591
1!
11
b10 J
#592
0!
01
#593
1!
11
b11 J
b1 J
1H
05
0"
1T
1o
b101 d
#594
0!
01
#595
1!
11
b10 J
#596
0!
01
#597
1!
11
b11 J
b1 J
0H
15
1"
0T
0o
#598
0!
01
#599
1!
11
b10 J
#600
0!
01
#601
1!
11
b11 J
b1 J
1H
05
0"
1T
1o
b110 d
#602
0!
01
#603
1!
11
b10 J
#604
0!
01
#605
1!
11
b11 J
b1 J
0H
15
1"
0T
0o
#606
0!
01
#607
1!
11
b10 J
#608
0!
01
#609
1!
11
b11 J
b1 J
1H
05
0"
1T
1o
b111 d
#610
0!
01
#611
1!
11
b10 J
#612
0!
01
#613
1!
11
b11 J
b1 J
0H
15
1"
0T
0o
#614
0!
01
#615
1!
11
b10 J
#616
0!
01
#617
1!
11
b11 J
b1 J
1H
05
0"
1T
1o
b1000 d
#618
0!
01
#619
1!
11
b10 J
#620
0!
01
#621
1!
11
b11 J
b1 J
0H
15
1"
0T
0o
#622
0!
01
#623
1!
11
b10 J
#624
0!
01
#625
1!
11
b11 J
b1 J
1H
05
0"
1T
1o
b1001 d
#626
0!
01
#627
1!
11
b10 J
#628
0!
01
#629
1!
11
b11 J
b1 J
0H
15
1"
0T
0o
#630
0!
01
#631
1!
11
b10 J
#632
0!
01
#633
1!
11
b11 J
b1 J
1H
05
0"
1T
1o
b1010 d
#634
0!
01
#635
1!
11
b10 J
#636
0!
01
#637
1!
11
b11 J
b1 J
0H
15
1"
0T
0o
#638
0!
01
#639
1!
11
b10 J
#640
0!
01
#641
1!
11
b11 J
b1 J
1H
05
0"
1T
1o
b1011 d
#642
0!
01
#643
1!
11
b10 J
#644
0!
01
#645
1!
11
b11 J
b1 J
0H
15
1"
0T
0o
#646
0!
01
#647
1!
11
b10 J
#648
0!
01
#649
1!
11
b11 J
b1 J
1H
05
0"
1T
1o
b1100 d
#650
0!
01
#651
1!
11
b10 J
#652
0!
01
#653
1!
11
b11 J
b1 J
0H
15
1"
0T
0o
#654
0!
01
#655
1!
11
b10 J
#656
0!
01
#657
1!
11
b11 J
b1 J
1H
05
0"
1T
1o
b1101 d
#658
0!
01
#659
1!
11
b10 J
#660
0!
01
#661
1!
11
b11 J
b1 J
0H
15
1"
0T
0o
#662
0!
01
#663
1!
11
b10 J
#664
0!
01
#665
1!
11
b11 J
b1 J
1H
05
0"
1T
1o
b1110 d
#666
0!
01
#667
1!
11
b10 J
#668
0!
01
#669
1!
11
b11 J
b1 J
0H
15
1"
0T
0o
#670
0!
01
#671
1!
11
b10 J
#672
0!
01
#673
1!
11
b11 J
b1 J
1H
05
0"
1T
1o
b1111 d
#674
0!
01
#675
1!
11
b10 J
#676
0!
01
#677
1!
11
b11 J
b1 J
0H
15
1"
0T
0o
#678
0!
01
#679
1!
11
b10 J
#680
0!
01
#681
1!
11
b11 J
b1 J
1H
05
0"
1T
1o
b10000 d
#682
0!
01
#683
1!
11
b10 J
#684
0!
01
#685
1!
11
b11 J
b1 J
0H
15
1"
0T
0o
#686
0!
01
#687
1!
11
b10 J
#688
0!
01
#689
1!
11
b11 J
b1 J
1H
05
0"
1T
1o
b1 b
b0 d
b11 e
#690
0!
01
#691
1!
11
b10 J
#692
0!
01
#693
1!
11
b11 J
b1 J
0H
15
1"
0T
0o
#694
0!
01
#695
1!
11
b10 J
#696
0!
01
#697
1!
11
b11 J
b1 J
1H
05
0"
1T
1o
1^
b1 d
1%
#698
0!
01
#699
1!
11
b10 J
#700
0!
01
#701
1!
11
b11 J
b1 J
0H
15
1"
0T
0o
#702
0!
01
#703
1!
11
b10 J
#704
0!
01
#705
1!
11
b11 J
b1 J
1H
05
0"
1T
1o
b10 d
#706
0!
01
#707
1!
11
b10 J
#708
0!
01
#709
1!
11
b11 J
b1 J
0H
15
1"
0T
0o
#710
0!
01
#711
1!
11
b10 J
#712
0!
01
#713
1!
11
b11 J
b1 J
1H
05
0"
1T
1o
b11 d
#714
0!
01
#715
1!
11
b10 J
#716
0!
01
#717
1!
11
b11 J
b1 J
0H
15
1"
0T
0o
#718
0!
01
#719
1!
11
b10 J
#720
0!
01
#721
1!
11
b11 J
b1 J
1H
05
0"
1T
1o
b100 d
#722
0!
01
#723
1!
11
b10 J
#724
0!
01
#725
1!
11
b11 J
b1 J
0H
15
1"
0T
0o
#726
0!
01
#727
1!
11
b10 J
#728
0!
01
#729
1!
11
b11 J
b1 J
1H
05
0"
1T
1o
b101 d
#730
0!
01
#731
1!
11
b10 J
#732
0!
01
#733
1!
11
b11 J
b1 J
0H
15
1"
0T
0o
#734
0!
01
#735
1!
11
b10 J
#736
0!
01
#737
1!
11
b11 J
b1 J
1H
05
0"
1T
1o
b110 d
#738
0!
01
#739
1!
11
b10 J
#740
0!
01
#741
1!
11
b11 J
b1 J
0H
15
1"
0T
0o
#742
0!
01
#743
1!
11
b10 J
#744
0!
01
#745
1!
11
b11 J
b1 J
1H
05
0"
1T
1o
b111 d
#746
0!
01
#747
1!
11
b10 J
#748
0!
01
#749
1!
11
b11 J
b1 J
0H
15
1"
0T
0o
#750
0!
01
#751
1!
11
b10 J
#752
0!
01
#753
1!
11
b11 J
b1 J
1H
05
0"
1T
1o
b1000 d
#754
0!
01
#755
1!
11
b10 J
#756
0!
01
#757
1!
11
b11 J
b1 J
0H
15
1"
0T
0o
#758
0!
01
#759
1!
11
b10 J
#760
0!
01
#761
1!
11
b11 J
b1 J
1H
05
0"
1T
1o
b1001 d
#762
0!
01
#763
1!
11
b10 J
#764
0!
01
#765
1!
11
b11 J
b1 J
0H
15
1"
0T
0o
#766
0!
01
#767
1!
11
b10 J
#768
0!
01
#769
1!
11
b11 J
b1 J
1H
05
0"
1T
1o
b1010 d
#770
0!
01
#771
1!
11
b10 J
#772
0!
01
#773
1!
11
b11 J
b1 J
0H
15
1"
0T
0o
#774
0!
01
#775
1!
11
b10 J
#776
0!
01
#777
1!
11
b11 J
b1 J
1H
05
0"
1T
1o
b1011 d
#778
0!
01
#779
1!
11
b10 J
#780
0!
01
#781
1!
11
b11 J
b1 J
0H
15
1"
0T
0o
#782
0!
01
#783
1!
11
b10 J
#784
0!
01
#785
1!
11
b11 J
b1 J
1H
05
0"
1T
1o
b1100 d
#786
0!
01
#787
1!
11
b10 J
#788
0!
01
#789
1!
11
b11 J
b1 J
0H
15
1"
0T
0o
#790
0!
01
#791
1!
11
b10 J
#792
0!
01
#793
1!
11
b11 J
b1 J
1H
05
0"
1T
1o
b1101 d
#794
0!
01
#795
1!
11
b10 J
#796
0!
01
#797
1!
11
b11 J
b1 J
0H
15
1"
0T
0o
#798
0!
01
#799
1!
11
b10 J
#800
0!
01
#801
1!
11
b11 J
b1 J
1H
05
0"
1T
1o
b1110 d
#802
0!
01
#803
1!
11
b10 J
