simulation/qsim/UART.msim.vcd
$comment
	File created using the following command:
		vcd file UART.msim.vcd -direction
$end
$date
	Fri Apr 25 22:55:33 2025
$end
$version
	ModelSim Version 2020.1
$end
$timescale
	1ps
$end

$scope module TX_vlg_vec_tst $end
$var reg 1 ! clk $end
$var wire 1 " led $end

$scope module i1 $end
$var wire 1 # gnd $end
$var wire 1 $ vcc $end
$var wire 1 % unknown $end
$var tri1 1 & devclrn $end
$var tri1 1 ' devpor $end
$var tri1 1 ( devoe $end
$var wire 1 ) led~output_o $end
$var wire 1 * clk~input_o $end
$var wire 1 + clk~inputclkctrl_outclk $end
$var wire 1 , Add0~0_combout $end
$var wire 1 - Add0~1 $end
$var wire 1 . Add0~2_combout $end
$var wire 1 / counter~0_combout $end
$var wire 1 0 Add0~3 $end
$var wire 1 1 Add0~4_combout $end
$var wire 1 2 Add0~5 $end
$var wire 1 3 Add0~6_combout $end
$var wire 1 4 Add0~7 $end
$var wire 1 5 Add0~8_combout $end
$var wire 1 6 Add0~9 $end
$var wire 1 7 Add0~10_combout $end
$var wire 1 8 Add0~11 $end
$var wire 1 9 Add0~12_combout $end
$var wire 1 : Add0~13 $end
$var wire 1 ; Add0~14_combout $end
$var wire 1 < Add0~15 $end
$var wire 1 = Add0~16_combout $end
$var wire 1 > Add0~17 $end
$var wire 1 ? Add0~18_combout $end
$var wire 1 @ Add0~19 $end
$var wire 1 A Add0~20_combout $end
$var wire 1 B Add0~21 $end
$var wire 1 C Add0~22_combout $end
$var wire 1 D Equal0~2_combout $end
$var wire 1 E Equal0~1_combout $end
$var wire 1 F Add0~23 $end
$var wire 1 G Add0~24_combout $end
$var wire 1 H Add0~25 $end
$var wire 1 I Add0~26_combout $end
$var wire 1 J Add0~27 $end
$var wire 1 K Add0~28_combout $end
$var wire 1 L Add0~29 $end
$var wire 1 M Add0~30_combout $end
$var wire 1 N Equal0~3_combout $end
$var wire 1 O Equal0~0_combout $end
$var wire 1 P Equal0~4_combout $end
$var wire 1 Q Add0~31 $end
$var wire 1 R Add0~32_combout $end
$var wire 1 S Add0~33 $end
$var wire 1 T Add0~34_combout $end
$var wire 1 U Add0~35 $end
$var wire 1 V Add0~36_combout $end
$var wire 1 W Add0~37 $end
$var wire 1 X Add0~38_combout $end
$var wire 1 Y Add0~39 $end
$var wire 1 Z Add0~40_combout $end
$var wire 1 [ Add0~41 $end
$var wire 1 \ Add0~42_combout $end
$var wire 1 ] Add0~43 $end
$var wire 1 ^ Add0~44_combout $end
$var wire 1 _ Add0~45 $end
$var wire 1 ` Add0~46_combout $end
$var wire 1 a Add0~47 $end
$var wire 1 b Add0~48_combout $end
$var wire 1 c Add0~49 $end
$var wire 1 d Add0~50_combout $end
$var wire 1 e Add0~51 $end
$var wire 1 f Add0~52_combout $end
$var wire 1 g Add0~53 $end
$var wire 1 h Add0~54_combout $end
$var wire 1 i Equal0~8_combout $end
$var wire 1 j Add0~55 $end
$var wire 1 k Add0~56_combout $end
$var wire 1 l Add0~57 $end
$var wire 1 m Add0~58_combout $end
$var wire 1 n Add0~59 $end
$var wire 1 o Add0~60_combout $end
$var wire 1 p Add0~61 $end
$var wire 1 q Add0~62_combout $end
$var wire 1 r Equal0~9_combout $end
$var wire 1 s Equal0~6_combout $end
$var wire 1 t Equal0~5_combout $end
$var wire 1 u Equal0~7_combout $end
$var wire 1 v Equal0~10_combout $end
$var wire 1 w led~0_combout $end
$var wire 1 x led~reg0_q $end
$var wire 1 y counter [31] $end
$var wire 1 z counter [30] $end
$var wire 1 { counter [29] $end
$var wire 1 | counter [28] $end
$var wire 1 } counter [27] $end
$var wire 1 ~ counter [26] $end
$var wire 1 !! counter [25] $end
$var wire 1 "! counter [24] $end
$var wire 1 #! counter [23] $end
$var wire 1 $! counter [22] $end
$var wire 1 %! counter [21] $end
$var wire 1 &! counter [20] $end
$var wire 1 '! counter [19] $end
$var wire 1 (! counter [18] $end
$var wire 1 )! counter [17] $end
$var wire 1 *! counter [16] $end
$var wire 1 +! counter [15] $end
$var wire 1 ,! counter [14] $end
$var wire 1 -! counter [13] $end
$var wire 1 .! counter [12] $end
$var wire 1 /! counter [11] $end
$var wire 1 0! counter [10] $end
$var wire 1 1! counter [9] $end
$var wire 1 2! counter [8] $end
$var wire 1 3! counter [7] $end
$var wire 1 4! counter [6] $end
$var wire 1 5! counter [5] $end
$var wire 1 6! counter [4] $end
$var wire 1 7! counter [3] $end
$var wire 1 8! counter [2] $end
$var wire 1 9! counter [1] $end
$var wire 1 :! counter [0] $end
$upscope $end
$upscope $end
$enddefinitions $end
#0
$dumpvars
0!
0"
0#
1$
x%
1&
1'
1(
0)
0*
0+
1,
0-
0.
0/
10
01
02
03
14
05
06
07
18
09
0:
0;
1<
0=
0>
0?
1@
0A
0B
0C
1D
1E
1F
0G
0H
0I
1J
0K
0L
0M
1N
0O
0P
1Q
0R
0S
0T
1U
0V
0W
0X
1Y
0Z
0[
0\
1]
0^
0_
0`
1a
0b
0c
0d
1e
0f
0g
0h
1i
1j
0k
0l
0m
1n
0o
0p
0q
1r
1s
1t
1u
0v
0w
0x
0:!
09!
08!
07!
06!
05!
04!
03!
02!
01!
00!
0/!
0.!
0-!
0,!
0+!
0*!
0)!
0(!
0'!
0&!
0%!
0$!
0#!
0"!
0!!
0~
0}
0|
0{
0z
0y
$end
#5000
1!
1*
1+
1:!
1-
0,
1.
1/
#10000
0!
0*
0+
#15000
1!
1*
1+
19!
0:!
1O
00
0.
0-
1,
1P
0/
10
1.
11
1v
1/
01
0/
1w
#20000
0!
0*
0+
#25000
1!
1*
1+
09!
1:!
1x
1)
0O
0.
1-
1"
0,
0w
0P
1.
0v
1/
1w
#30000
0!
0*
0+
#35000
1!
1*
1+
19!
0:!
1O
00
0.
0-
1,
1P
0/
10
1.
11
1v
1/
01
0/
0w
#40000
0!
0*
0+
#45000
1!
1*
1+
09!
1:!
0x
0)
0O
0.
1-
0"
0,
1w
0P
1.
0v
1/
0w
#50000
0!
0*
0+
#55000
1!
1*
1+
19!
0:!
1O
00
0.
0-
1,
1P
0/
10
1.
11
1v
1/
01
0/
1w
#60000
0!
0*
0+
#65000
1!
1*
1+
09!
1:!
1x
1)
0O
0.
1-
1"
0,
0w
0P
1.
0v
1/
1w
#70000
0!
0*
0+
#75000
1!
1*
1+
19!
0:!
1O
00
0.
0-
1,
1P
0/
10
1.
11
1v
1/
01
0/
0w
#80000
0!
0*
0+
#85000
1!
1*
1+
09!
1:!
0x
0)
0O
0.
1-
0"
0,
1w
0P
1.
0v
1/
0w
#90000
0!
0*
0+
#95000
1!
1*
1+
19!
0:!
1O
00
0.
0-
1,
1P
0/
10
1.
11
1v
1/
01
0/
1w
#100000
0!
0*
0+
#105000
1!
1*
1+
09!
1:!
1x
1)
0O
0.
1-
1"
0,
0w
0P
1.
0v
1/
1w
#110000
0!
0*
0+
#115000
1!
1*
1+
19!
0:!
1O
00
0.
0-
1,
1P
0/
10
1.
11
1v
1/
01
0/
0w
#120000
0!
0*
0+
#125000
1!
1*
1+
09!
1:!
0x
0)
0O
0.
1-
0"
0,
1w
0P
1.
0v
1/
0w
#130000
0!
0*
0+
#135000
1!
1*
1+
19!
0:!
1O
00
0.
0-
1,
1P
0/
10
1.
11
1v
1/
01
0/
1w
#140000
0!
0*
0+
#145000
1!
1*
1+
09!
1:!
1x
1)
0O
0.
1-
1"
0,
0w
0P
1.
0v
1/
1w
#150000
0!
0*
0+
#155000
1!
1*
1+
19!
0:!
1O
00
0.
0-
1,
1P
0/
10
1.
11
1v
1/
01
0/
0w
#160000
0!
0*
0+
#165000
1!
1*
1+
09!
1:!
0x
0)
0O
0.
1-
0"
0,
1w
0P
1.
0v
1/
0w
#170000
0!
0*
0+
#175000
1!
1*
1+
19!
0:!
1O
00
0.
0-
1,
1P
0/
10
1.
11
1v
1/
01
0/
1w
#180000
0!
0*
0+
#185000
1!
1*
1+
09!
1:!
1x
1)
0O
0.
1-
1"
0,
0w
0P
1.
0v
1/
1w
#190000
0!
0*
0+
#195000
1!
1*
1+
19!
0:!
1O
00
0.
0-
1,
1P
0/
10
1.
11
1v
1/
01
0/
0w
#200000
0!
0*
0+
#205000
1!
1*
1+
09!
1:!
0x
0)
0O
0.
1-
0"
0,
1w
0P
1.
0v
1/
0w
#210000
0!
0*
0+
#215000
1!
1*
1+
19!
0:!
1O
00
0.
0-
1,
1P
0/
10
1.
11
1v
1/
01
0/
1w
#220000
0!
0*
0+
#225000
1!
1*
1+
09!
1:!
1x
1)
0O
0.
1-
1"
0,
0w
0P
1.
0v
1/
1w
#230000
0!
0*
0+
#235000
1!
1*
1+
19!
0:!
1O
00
0.
0-
1,
1P
0/
10
1.
11
1v
1/
01
0/
0w
#240000
0!
0*
0+
#245000
1!
1*
1+
09!
1:!
0x
0)
0O
0.
1-
0"
0,
1w
0P
1.
0v
1/
0w
#250000
0!
0*
0+
#255000
1!
1*
1+
19!
0:!
1O
00
0.
0-
1,
1P
0/
10
1.
11
1v
1/
01
0/
1w
#260000
0!
0*
0+
#265000
1!
1*
1+
09!
1:!
1x
1)
0O
0.
1-
1"
0,
0w
0P
1.
0v
1/
1w
#270000
0!
0*
0+
#275000
1!
1*
1+
19!
0:!
1O
00
0.
0-
1,
1P
0/
10
1.
11
1v
1/
01
0/
0w
#280000
0!
0*
0+
#285000
1!
1*
1+
09!
1:!
0x
0)
0O
0.
1-
0"
0,
1w
0P
1.
0v
1/
0w
#290000
0!
0*
0+
#295000
1!
1*
1+
19!
0:!
1O
00
0.
0-
1,
1P
0/
10
1.
11
1v
1/
01
0/
1w
#300000
0!
0*
0+
#305000
1!
1*
1+
09!
1:!
1x
1)
0O
0.
1-
1"
0,
0w
0P
1.
0v
1/
1w
#310000
0!
0*
0+
#315000
1!
1*
1+
19!
0:!
1O
00
0.
0-
1,
1P
0/
10
1.
11
1v
1/
01
0/
0w
#320000
0!
0*
0+
#325000
1!
1*
1+
09!
1:!
0x
0)
0O
0.
1-
0"
0,
1w
0P
1.
0v
1/
0w
#330000
0!
0*
0+
#335000
1!
1*
1+
19!
0:!
1O
00
0.
0-
1,
1P
0/
10
1.
11
1v
1/
01
0/
1w
#340000
0!
0*
0+
#345000
1!
1*
1+
09!
1:!
1x
1)
0O
0.
1-
1"
0,
0w
0P
1.
0v
1/
1w
#350000
0!
0*
0+
#355000
1!
1*
1+
19!
0:!
1O
00
0.
0-
1,
1P
0/
10
1.
11
1v
1/
01
0/
0w
#360000
0!
0*
0+
#365000
1!
1*
1+
09!
1:!
0x
0)
0O
0.
1-
0"
0,
1w
0P
1.
0v
1/
0w
#370000
0!
0*
0+
#375000
1!
1*
1+
19!
0:!
1O
00
0.
0-
1,
1P
0/
10
1.
11
1v
1/
01
0/
1w
#380000
0!
0*
0+
#385000
1!
1*
1+
09!
1:!
1x
1)
0O
0.
1-
1"
0,
0w
0P
1.
0v
1/
1w
#390000
0!
0*
0+
#395000
1!
1*
1+
19!
0:!
1O
00
0.
0-
1,
1P
0/
10
1.
11
1v
1/
01
0/
0w
#400000
0!
0*
0+
#405000
1!
1*
1+
09!
1:!
0x
0)
0O
0.
1-
0"
0,
1w
0P
1.
0v
1/
0w
#410000
0!
0*
0+
#415000
1!
1*
1+
19!
0:!
1O
00
0.
0-
1,
1P
0/
10
1.
11
1v
1/
01
0/
1w
#420000
0!
0*
0+
#425000
1!
1*
1+
09!
1:!
1x
1)
0O
0.
1-
1"
0,
0w
0P
1.
0v
1/
1w
#430000
0!
0*
0+
#435000
1!
1*
1+
19!
0:!
1O
00
0.
0-
1,
1P
0/
10
1.
11
1v
1/
01
0/
0w
#440000
0!
0*
0+
#445000
1!
1*
1+
09!
1:!
0x
0)
0O
0.
1-
0"
0,
1w
0P
1.
0v
1/
0w
#450000
0!
0*
0+
#455000
1!
1*
1+
19!
0:!
1O
00
0.
0-
1,
1P
0/
10
1.
11
1v
1/
01
0/
1w
#460000
0!
0*
0+
#465000
1!
1*
1+
09!
1:!
1x
1)
0O
0.
1-
1"
0,
0w
0P
1.
0v
1/
1w
#470000
0!
0*
0+
#475000
1!
1*
1+
19!
0:!
1O
00
0.
0-
1,
1P
0/
10
1.
11
1v
1/
01
0/
0w
#480000
0!
0*
0+
#485000
1!
1*
1+
09!
1:!
0x
0)
0O
0.
1-
0"
0,
1w
0P
1.
0v
1/
0w
#490000
0!
0*
0+
#495000
1!
1*
1+
19!
0:!
1O
00
0.
0-
1,
1P
0/
10
1.
11
1v
1/
01
0/
1w
#500000
0!
0*
0+
#505000
1!
1*
1+
09!
1:!
1x
1)
0O
0.
1-
1"
0,
0w
0P
1.
0v
1/
1w
#510000
0!
0*
0+
#515000
1!
1*
1+
19!
0:!
1O
00
0.
0-
1,
1P
0/
10
1.
11
1v
1/
01
0/
0w
#520000
0!
0*
0+
#525000
1!
1*
1+
09!
1:!
0x
0)
0O
0.
1-
0"
0,
1w
0P
1.
0v
1/
0w
#530000
0!
0*
0+
#535000
1!
1*
1+
19!
0:!
1O
00
0.
0-
1,
1P
0/
10
1.
11
1v
1/
01
0/
1w
#540000
0!
0*
0+
#545000
1!
1*
1+
09!
1:!
1x
1)
0O
0.
1-
1"
0,
0w
0P
1.
0v
1/
1w
#550000
0!
0*
0+
#555000
1!
1*
1+
19!
0:!
1O
00
0.
0-
1,
1P
0/
10
1.
11
1v
1/
01
0/
0w
#560000
0!
0*
0+
#565000
1!
1*
1+
09!
1:!
0x
0)
0O
0.
1-
0"
0,
1w
0P
1.
0v
1/
0w
#570000
0!
0*
0+
#575000
1!
1*
1+
19!
0:!
1O
00
0.
0-
1,
1P
0/
10
1.
11
1v
1/
01
0/
1w
#580000
0!
0*
0+
#585000
1!
1*
1+
09!
1:!
1x
1)
0O
0.
1-
1"
0,
0w
0P
1.
0v
1/
1w
#590000
0!
0*
0+
#595000
1!
1*
1+
19!
0:!
1O
00
0.
0-
1,
1P
0/
10
1.
11
1v
1/
01
0/
0w
#600000
0!
0*
0+
#605000
1!
1*
1+
09!
1:!
0x
0)
0O
0.
1-
0"
0,
1w
0P
1.
0v
1/
0w
#610000
0!
0*
0+
#615000
1!
1*
1+
19!
0:!
1O
00
0.
0-
1,
1P
0/
10
1.
11
1v
1/
01
0/
1w
#620000
0!
0*
0+
#625000
1!
1*
1+
09!
1:!
1x
1)
0O
0.
1-
1"
0,
0w
0P
1.
0v
1/
1w
#630000
0!
0*
0+
#635000
1!
1*
1+
19!
0:!
1O
00
0.
0-
1,
1P
0/
10
1.
11
1v
1/
01
0/
0w
#640000
0!
0*
0+
#645000
1!
1*
1+
09!
1:!
0x
0)
0O
0.
1-
0"
0,
1w
0P
1.
0v
1/
0w
#650000
0!
0*
0+
#655000
1!
1*
1+
19!
0:!
1O
00
0.
0-
1,
1P
0/
10
1.
11
1v
1/
01
0/
1w
#660000
0!
0*
0+
#665000
1!
1*
1+
09!
1:!
1x
1)
0O
0.
1-
1"
0,
0w
0P
1.
0v
1/
1w
#670000
0!
0*
0+
#675000
1!
1*
1+
19!
0:!
1O
00
0.
0-
1,
1P
0/
10
1.
11
1v
1/
01
0/
0w
#680000
0!
0*
0+
#685000
1!
1*
1+
09!
1:!
0x
0)
0O
0.
1-
0"
0,
1w
0P
1.
0v
1/
0w
#690000
0!
0*
0+
#695000
1!
1*
1+
19!
0:!
1O
00
0.
0-
1,
1P
0/
10
1.
11
1v
1/
01
0/
1w
#700000
0!
0*
0+
#705000
1!
1*
1+
09!
1:!
1x
1)
0O
0.
1-
1"
0,
0w
0P
1.
0v
1/
1w
#710000
0!
0*
0+
#715000
1!
1*
1+
19!
0:!
1O
00
0.
0-
1,
1P
0/
10
1.
11
1v
1/
01
0/
0w
#720000
0!
0*
0+
#725000
1!
1*
1+
09!
1:!
0x
0)
0O
0.
1-
0"
0,
1w
0P
1.
0v
1/
0w
#730000
0!
0*
0+
#735000
1!
1*
1+
19!
0:!
1O
00
0.
0-
1,
1P
0/
10
1.
11
1v
1/
01
0/
1w
#740000
0!
0*
0+
#745000
1!
1*
1+
09!
1:!
1x
1)
0O
0.
1-
1"
0,
0w
0P
1.
0v
1/
1w
#750000
0!
0*
0+
#755000
1!
1*
1+
19!
0:!
1O
00
0.
0-
1,
1P
0/
10
1.
11
1v
1/
01
0/
0w
#760000
0!
0*
0+
#765000
1!
1*
1+
09!
1:!
0x
0)
0O
0.
1-
0"
0,
1w
0P
1.
0v
1/
0w
#770000
0!
0*
0+
#775000
1!
1*
1+
19!
0:!
1O
00
0.
0-
1,
1P
0/
10
1.
11
1v
1/
01
0/
1w
#780000
0!
0*
0+
#785000
1!
1*
1+
09!
1:!
1x
1)
0O
0.
1-
1"
0,
0w
0P
1.
0v
1/
1w
#790000
0!
0*
0+
#795000
1!
1*
1+
19!
0:!
1O
00
0.
0-
1,
1P
0/
10
1.
11
1v
1/
01
0/
0w
#800000
0!
0*
0+
#805000
1!
1*
1+
09!
1:!
0x
0)
0O
0.
1-
0"
0,
1w
0P
1.
0v
1/
0w
#810000
0!
0*
0+
#815000
1!
1*
1+
19!
0:!
1O
00
0.
0-
1,
1P
0/
10
1.
11
1v
1/
01
0/
1w
#820000
0!
0*
0+
#825000
1!
1*
1+
09!
1:!
1x
1)
0O
0.
1-
1"
0,
0w
0P
1.
0v
1/
1w
#830000
0!
0*
0+
#835000
1!
1*
1+
19!
0:!
1O
00
0.
0-
1,
1P
0/
10
1.
11
1v
1/
01
0/
0w
#840000
0!
0*
0+
#845000
1!
1*
1+
09!
1:!
0x
0)
0O
0.
1-
0"
0,
1w
0P
1.
0v
1/
0w
#850000
0!
0*
0+
#855000
1!
1*
1+
19!
0:!
1O
00
0.
0-
1,
1P
0/
10
1.
11
1v
1/
01
0/
1w
#860000
0!
0*
0+
#865000
1!
1*
1+
09!
1:!
1x
1)
0O
0.
1-
1"
0,
0w
0P
1.
0v
1/
1w
#870000
0!
0*
0+
#875000
1!
1*
1+
19!
0:!
1O
00
0.
0-
1,
1P
0/
10
1.
11
1v
1/
01
0/
0w
#880000
0!
0*
0+
#885000
1!
1*
1+
09!
1:!
0x
0)
0O
0.
1-
0"
0,
1w
0P
1.
0v
1/
0w
#890000
0!
0*
0+
#895000
1!
1*
1+
19!
0:!
1O
00
0.
0-
1,
1P
0/
10
1.
11
1v
1/
01
0/
1w
#900000
0!
0*
0+
#905000
1!
1*
1+
09!
1:!
1x
1)
0O
0.
1-
1"
0,
0w
0P
1.
0v
1/
1w
#910000
0!
0*
0+
#915000
1!
1*
1+
19!
0:!
1O
00
0.
0-
1,
1P
0/
10
1.
11
1v
1/
01
0/
0w
#920000
0!
0*
0+
#925000
1!
1*
1+
09!
1:!
0x
0)
0O
0.
1-
0"
0,
1w
0P
1.
0v
1/
0w
#930000
0!
0*
0+
#935000
1!
1*
1+
19!
0:!
1O
00
0.
0-
1,
1P
0/
10
1.
11
1v
1/
01
0/
1w
#940000
0!
0*
0+
#945000
1!
1*
1+
09!
1:!
1x
1)
0O
0.
1-
1"
0,
0w
0P
1.
0v
1/
1w
#950000
0!
0*
0+
#955000
1!
1*
1+
19!
0:!
1O
00
0.
0-
1,
1P
0/
10
1.
11
1v
1/
01
0/
0w
#960000
0!
0*
0+
#965000
1!
1*
1+
09!
1:!
0x
0)
0O
0.
1-
0"
0,
1w
0P
1.
0v
1/
0w
#970000
0!
0*
0+
#975000
1!
1*
1+
19!
0:!
1O
00
0.
0-
1,
1P
0/
10
1.
11
1v
1/
01
0/
1w
#980000
0!
0*
0+
#985000
1!
1*
1+
09!
1:!
1x
1)
0O
0.
1-
1"
0,
0w
0P
1.
0v
1/
1w
#990000
0!
0*
0+
#995000
1!
1*
1+
19!
0:!
1O
00
0.
0-
1,
1P
0/
10
1.
11
1v
1/
01
0/
0w
